[
    {
        "name" : "Nike",
        "is_big_brand" : true,
        "ClientId" : 1
    },
    {
        "name" : "Noraxx",
        "is_big_brand" : true,
        "ClientId" : 2
    },
    {
        "name" : "Keke",
        "is_big_brand" : true,
        "ClientId" : 1
    }
]