[
    {
        "ProvinceId": 8,
        "CityId": 1,
        "name": "MANOKWARI SELATAN",
        "created_at": "2019-06-01 00:00:00+07",
        "updated_at": "2019-06-01 00:00:00+07"
    },
    {
        "ProvinceId": 8,
        "CityId": 2,
        "name": "PEGUNUNGAN ARFAK",
        "created_at": "2019-06-01 00:00:00+07",
        "updated_at": "2019-06-01 00:00:00+07"
    },
    {
        "ProvinceId": 8,
        "CityId": 3,
        "name": "SORONG",
        "created_at": "2019-06-01 00:00:00+07",
        "updated_at": "2019-06-01 00:00:00+07"
    },
    {
        "ProvinceId": 8,
        "CityId": 4,
        "name": "TAMBRAUW",
        "created_at": "2019-06-01 00:00:00+07",
        "updated_at": "2019-06-01 00:00:00+07"
    },
    {
        "ProvinceId": 8,
        "CityId": 5,
        "name": "MANOKWARI",
        "created_at": "2019-06-01 00:00:00+07",
        "updated_at": "2019-06-01 00:00:00+07"
    },
    {
        "ProvinceId": 8,
        "CityId": 6,
        "name": "RAJA AMPAT",
        "created_at": "2019-06-01 00:00:00+07",
        "updated_at": "2019-06-01 00:00:00+07"
    },
    {
        "ProvinceId": 8,
        "CityId": 7,
        "name": "MAYBRAT",
        "created_at": "2019-06-01 00:00:00+07",
        "updated_at": "2019-06-01 00:00:00+07"
    },
    {
        "ProvinceId": 8,
        "CityId": 8,
        "name": "TELUK WONDAMA",
        "created_at": "2019-06-01 00:00:00+07",
        "updated_at": "2019-06-01 00:00:00+07"
    },
    {
        "ProvinceId": 8,
        "CityId": 9,
        "name": "TELUK BINTUNI",
        "created_at": "2019-06-01 00:00:00+07",
        "updated_at": "2019-06-01 00:00:00+07"
    },
    {
        "ProvinceId": 8,
        "CityId": 10,
        "name": "KAIMANA",
        "created_at": "2019-06-01 00:00:00+07",
        "updated_at": "2019-06-01 00:00:00+07"
    },
    {
        "ProvinceId": 8,
        "CityId": 11,
        "name": "FAK FAK",
        "created_at": "2019-06-01 00:00:00+07",
        "updated_at": "2019-06-01 00:00:00+07"
    },
    {
        "ProvinceId": 8,
        "CityId": 12,
        "name": "SORONG SELATAN",
        "created_at": "2019-06-01 00:00:00+07",
        "updated_at": "2019-06-01 00:00:00+07"
    },
    {
        "ProvinceId": 5,
        "CityId": 13,
        "name": "BANTUL",
        "created_at": "2019-06-01 00:00:00+07",
        "updated_at": "2019-06-01 00:00:00+07"
    },
    {
        "ProvinceId": 5,
        "CityId": 14,
        "name": "KULON PROGO",
        "created_at": "2019-06-01 00:00:00+07",
        "updated_at": "2019-06-01 00:00:00+07"
    },
    {
        "ProvinceId": 5,
        "CityId": 15,
        "name": "GUNUNG KIDUL",
        "created_at": "2019-06-01 00:00:00+07",
        "updated_at": "2019-06-01 00:00:00+07"
    },
    {
        "ProvinceId": 5,
        "CityId": 16,
        "name": "SLEMAN",
        "created_at": "2019-06-01 00:00:00+07",
        "updated_at": "2019-06-01 00:00:00+07"
    },
    {
        "ProvinceId": 5,
        "CityId": 17,
        "name": "YOGYAKARTA",
        "created_at": "2019-06-01 00:00:00+07",
        "updated_at": "2019-06-01 00:00:00+07"
    },
    {
        "ProvinceId": 12,
        "CityId": 18,
        "name": "TULUNGAGUNG",
        "created_at": "2019-06-01 00:00:00+07",
        "updated_at": "2019-06-01 00:00:00+07"
    },
    {
        "ProvinceId": 12,
        "CityId": 19,
        "name": "MOJOKERTO",
        "created_at": "2019-06-01 00:00:00+07",
        "updated_at": "2019-06-01 00:00:00+07"
    },
    {
        "ProvinceId": 12,
        "CityId": 20,
        "name": "TUBAN",
        "created_at": "2019-06-01 00:00:00+07",
        "updated_at": "2019-06-01 00:00:00+07"
    },
    {
        "ProvinceId": 12,
        "CityId": 21,
        "name": "PASURUAN",
        "created_at": "2019-06-01 00:00:00+07",
        "updated_at": "2019-06-01 00:00:00+07"
    },
    {
        "ProvinceId": 12,
        "CityId": 22,
        "name": "SURABAYA",
        "created_at": "2019-06-01 00:00:00+07",
        "updated_at": "2019-06-01 00:00:00+07"
    },
    {
        "ProvinceId": 12,
        "CityId": 23,
        "name": "JEMBER",
        "created_at": "2019-06-01 00:00:00+07",
        "updated_at": "2019-06-01 00:00:00+07"
    },
    {
        "ProvinceId": 12,
        "CityId": 24,
        "name": "LAMONGAN",
        "created_at": "2019-06-01 00:00:00+07",
        "updated_at": "2019-06-01 00:00:00+07"
    },
    {
        "ProvinceId": 12,
        "CityId": 25,
        "name": "PAMEKASAN",
        "created_at": "2019-06-01 00:00:00+07",
        "updated_at": "2019-06-01 00:00:00+07"
    },
    {
        "ProvinceId": 12,
        "CityId": 26,
        "name": "BANYUWANGI",
        "created_at": "2019-06-01 00:00:00+07",
        "updated_at": "2019-06-01 00:00:00+07"
    },
    {
        "ProvinceId": 12,
        "CityId": 27,
        "name": "TRENGGALEK",
        "created_at": "2019-06-01 00:00:00+07",
        "updated_at": "2019-06-01 00:00:00+07"
    },
    {
        "ProvinceId": 12,
        "CityId": 28,
        "name": "NGAWI",
        "created_at": "2019-06-01 00:00:00+07",
        "updated_at": "2019-06-01 00:00:00+07"
    },
    {
        "ProvinceId": 12,
        "CityId": 29,
        "name": "BOJONEGORO",
        "created_at": "2019-06-01 00:00:00+07",
        "updated_at": "2019-06-01 00:00:00+07"
    },
    {
        "ProvinceId": 12,
        "CityId": 30,
        "name": "BLITAR",
        "created_at": "2019-06-01 00:00:00+07",
        "updated_at": "2019-06-01 00:00:00+07"
    },
    {
        "ProvinceId": 12,
        "CityId": 31,
        "name": "JOMBANG",
        "created_at": "2019-06-01 00:00:00+07",
        "updated_at": "2019-06-01 00:00:00+07"
    },
    {
        "ProvinceId": 12,
        "CityId": 32,
        "name": "SAMPANG",
        "created_at": "2019-06-01 00:00:00+07",
        "updated_at": "2019-06-01 00:00:00+07"
    },
    {
        "ProvinceId": 12,
        "CityId": 33,
        "name": "MALANG",
        "created_at": "2019-06-01 00:00:00+07",
        "updated_at": "2019-06-01 00:00:00+07"
    },
    {
        "ProvinceId": 12,
        "CityId": 34,
        "name": "BATU",
        "created_at": "2019-06-01 00:00:00+07",
        "updated_at": "2019-06-01 00:00:00+07"
    },
    {
        "ProvinceId": 12,
        "CityId": 35,
        "name": "PONOROGO",
        "created_at": "2019-06-01 00:00:00+07",
        "updated_at": "2019-06-01 00:00:00+07"
    },
    {
        "ProvinceId": 12,
        "CityId": 36,
        "name": "MADIUN",
        "created_at": "2019-06-01 00:00:00+07",
        "updated_at": "2019-06-01 00:00:00+07"
    },
    {
        "ProvinceId": 12,
        "CityId": 37,
        "name": "LUMAJANG",
        "created_at": "2019-06-01 00:00:00+07",
        "updated_at": "2019-06-01 00:00:00+07"
    },
    {
        "ProvinceId": 12,
        "CityId": 38,
        "name": "SITUBONDO",
        "created_at": "2019-06-01 00:00:00+07",
        "updated_at": "2019-06-01 00:00:00+07"
    },
    {
        "ProvinceId": 12,
        "CityId": 39,
        "name": "SUMENEP",
        "created_at": "2019-06-01 00:00:00+07",
        "updated_at": "2019-06-01 00:00:00+07"
    },
    {
        "ProvinceId": 12,
        "CityId": 40,
        "name": "KEDIRI",
        "created_at": "2019-06-01 00:00:00+07",
        "updated_at": "2019-06-01 00:00:00+07"
    },
    {
        "ProvinceId": 12,
        "CityId": 41,
        "name": "BONDOWOSO",
        "created_at": "2019-06-01 00:00:00+07",
        "updated_at": "2019-06-01 00:00:00+07"
    },
    {
        "ProvinceId": 12,
        "CityId": 42,
        "name": "BANGKALAN",
        "created_at": "2019-06-01 00:00:00+07",
        "updated_at": "2019-06-01 00:00:00+07"
    },
    {
        "ProvinceId": 12,
        "CityId": 43,
        "name": "PROBOLINGGO",
        "created_at": "2019-06-01 00:00:00+07",
        "updated_at": "2019-06-01 00:00:00+07"
    },
    {
        "ProvinceId": 12,
        "CityId": 44,
        "name": "GRESIK",
        "created_at": "2019-06-01 00:00:00+07",
        "updated_at": "2019-06-01 00:00:00+07"
    },
    {
        "ProvinceId": 12,
        "CityId": 45,
        "name": "PACITAN",
        "created_at": "2019-06-01 00:00:00+07",
        "updated_at": "2019-06-01 00:00:00+07"
    },
    {
        "ProvinceId": 12,
        "CityId": 46,
        "name": "NGANJUK",
        "created_at": "2019-06-01 00:00:00+07",
        "updated_at": "2019-06-01 00:00:00+07"
    },
    {
        "ProvinceId": 12,
        "CityId": 47,
        "name": "MAGETAN",
        "created_at": "2019-06-01 00:00:00+07",
        "updated_at": "2019-06-01 00:00:00+07"
    },
    {
        "ProvinceId": 12,
        "CityId": 48,
        "name": "SIDOARJO",
        "created_at": "2019-06-01 00:00:00+07",
        "updated_at": "2019-06-01 00:00:00+07"
    },
    {
        "ProvinceId": 13,
        "CityId": 49,
        "name": "KAPUAS HULU",
        "created_at": "2019-06-01 00:00:00+07",
        "updated_at": "2019-06-01 00:00:00+07"
    },
    {
        "ProvinceId": 13,
        "CityId": 50,
        "name": "BENGKAYANG",
        "created_at": "2019-06-01 00:00:00+07",
        "updated_at": "2019-06-01 00:00:00+07"
    },
    {
        "ProvinceId": 13,
        "CityId": 51,
        "name": "KETAPANG",
        "created_at": "2019-06-01 00:00:00+07",
        "updated_at": "2019-06-01 00:00:00+07"
    },
    {
        "ProvinceId": 13,
        "CityId": 52,
        "name": "SANGGAU",
        "created_at": "2019-06-01 00:00:00+07",
        "updated_at": "2019-06-01 00:00:00+07"
    },
    {
        "ProvinceId": 13,
        "CityId": 53,
        "name": "SINGKAWANG",
        "created_at": "2019-06-01 00:00:00+07",
        "updated_at": "2019-06-01 00:00:00+07"
    },
    {
        "ProvinceId": 13,
        "CityId": 54,
        "name": "MELAWI",
        "created_at": "2019-06-01 00:00:00+07",
        "updated_at": "2019-06-01 00:00:00+07"
    },
    {
        "ProvinceId": 13,
        "CityId": 55,
        "name": "MEMPAWAH",
        "created_at": "2019-06-01 00:00:00+07",
        "updated_at": "2019-06-01 00:00:00+07"
    },
    {
        "ProvinceId": 13,
        "CityId": 56,
        "name": "SAMBAS",
        "created_at": "2019-06-01 00:00:00+07",
        "updated_at": "2019-06-01 00:00:00+07"
    },
    {
        "ProvinceId": 13,
        "CityId": 57,
        "name": "SEKADAU",
        "created_at": "2019-06-01 00:00:00+07",
        "updated_at": "2019-06-01 00:00:00+07"
    },
    {
        "ProvinceId": 13,
        "CityId": 58,
        "name": "SINTANG",
        "created_at": "2019-06-01 00:00:00+07",
        "updated_at": "2019-06-01 00:00:00+07"
    },
    {
        "ProvinceId": 13,
        "CityId": 59,
        "name": "KUBU RAYA",
        "created_at": "2019-06-01 00:00:00+07",
        "updated_at": "2019-06-01 00:00:00+07"
    },
    {
        "ProvinceId": 13,
        "CityId": 60,
        "name": "LANDAK",
        "created_at": "2019-06-01 00:00:00+07",
        "updated_at": "2019-06-01 00:00:00+07"
    },
    {
        "ProvinceId": 13,
        "CityId": 61,
        "name": "KOTA PONTIANAK",
        "created_at": "2019-06-01 00:00:00+07",
        "updated_at": "2019-06-01 00:00:00+07"
    },
    {
        "ProvinceId": 13,
        "CityId": 62,
        "name": "KAYONG UTARA",
        "created_at": "2019-06-01 00:00:00+07",
        "updated_at": "2019-06-01 00:00:00+07"
    },
    {
        "ProvinceId": 9,
        "CityId": 63,
        "name": "BATANG HARI",
        "created_at": "2019-06-01 00:00:00+07",
        "updated_at": "2019-06-01 00:00:00+07"
    },
    {
        "ProvinceId": 9,
        "CityId": 64,
        "name": "KERINCI",
        "created_at": "2019-06-01 00:00:00+07",
        "updated_at": "2019-06-01 00:00:00+07"
    },
    {
        "ProvinceId": 9,
        "CityId": 65,
        "name": "MUARO JAMBI",
        "created_at": "2019-06-01 00:00:00+07",
        "updated_at": "2019-06-01 00:00:00+07"
    },
    {
        "ProvinceId": 9,
        "CityId": 66,
        "name": "SUNGAI PENUH",
        "created_at": "2019-06-01 00:00:00+07",
        "updated_at": "2019-06-01 00:00:00+07"
    },
    {
        "ProvinceId": 9,
        "CityId": 67,
        "name": "SAROLANGUN",
        "created_at": "2019-06-01 00:00:00+07",
        "updated_at": "2019-06-01 00:00:00+07"
    },
    {
        "ProvinceId": 9,
        "CityId": 68,
        "name": "TANJUNG JABUNG BARAT",
        "created_at": "2019-06-01 00:00:00+07",
        "updated_at": "2019-06-01 00:00:00+07"
    },
    {
        "ProvinceId": 9,
        "CityId": 69,
        "name": "TEBO",
        "created_at": "2019-06-01 00:00:00+07",
        "updated_at": "2019-06-01 00:00:00+07"
    },
    {
        "ProvinceId": 9,
        "CityId": 70,
        "name": "BUNGO",
        "created_at": "2019-06-01 00:00:00+07",
        "updated_at": "2019-06-01 00:00:00+07"
    },
    {
        "ProvinceId": 9,
        "CityId": 71,
        "name": "MERANGIN",
        "created_at": "2019-06-01 00:00:00+07",
        "updated_at": "2019-06-01 00:00:00+07"
    },
    {
        "ProvinceId": 9,
        "CityId": 72,
        "name": "JAMBI",
        "created_at": "2019-06-01 00:00:00+07",
        "updated_at": "2019-06-01 00:00:00+07"
    },
    {
        "ProvinceId": 9,
        "CityId": 73,
        "name": "TANJUNG JABUNG TIMUR",
        "created_at": "2019-06-01 00:00:00+07",
        "updated_at": "2019-06-01 00:00:00+07"
    },
    {
        "ProvinceId": 24,
        "CityId": 74,
        "name": "INTAN JAYA",
        "created_at": "2019-06-01 00:00:00+07",
        "updated_at": "2019-06-01 00:00:00+07"
    },
    {
        "ProvinceId": 24,
        "CityId": 75,
        "name": "PUNCAK JAYA",
        "created_at": "2019-06-01 00:00:00+07",
        "updated_at": "2019-06-01 00:00:00+07"
    },
    {
        "ProvinceId": 24,
        "CityId": 76,
        "name": "MIMIKA",
        "created_at": "2019-06-01 00:00:00+07",
        "updated_at": "2019-06-01 00:00:00+07"
    },
    {
        "ProvinceId": 24,
        "CityId": 77,
        "name": "WAROPEN",
        "created_at": "2019-06-01 00:00:00+07",
        "updated_at": "2019-06-01 00:00:00+07"
    },
    {
        "ProvinceId": 24,
        "CityId": 78,
        "name": "KEPULAUAN YAPEN",
        "created_at": "2019-06-01 00:00:00+07",
        "updated_at": "2019-06-01 00:00:00+07"
    },
    {
        "ProvinceId": 24,
        "CityId": 79,
        "name": "KEEROM",
        "created_at": "2019-06-01 00:00:00+07",
        "updated_at": "2019-06-01 00:00:00+07"
    },
    {
        "ProvinceId": 24,
        "CityId": 80,
        "name": "SARMI",
        "created_at": "2019-06-01 00:00:00+07",
        "updated_at": "2019-06-01 00:00:00+07"
    },
    {
        "ProvinceId": 24,
        "CityId": 81,
        "name": "MAMBERAMO RAYA",
        "created_at": "2019-06-01 00:00:00+07",
        "updated_at": "2019-06-01 00:00:00+07"
    },
    {
        "ProvinceId": 24,
        "CityId": 82,
        "name": "NDUGA",
        "created_at": "2019-06-01 00:00:00+07",
        "updated_at": "2019-06-01 00:00:00+07"
    },
    {
        "ProvinceId": 24,
        "CityId": 83,
        "name": "JAYAPURA",
        "created_at": "2019-06-01 00:00:00+07",
        "updated_at": "2019-06-01 00:00:00+07"
    },
    {
        "ProvinceId": 24,
        "CityId": 84,
        "name": "NABIRE",
        "created_at": "2019-06-01 00:00:00+07",
        "updated_at": "2019-06-01 00:00:00+07"
    },
    {
        "ProvinceId": 24,
        "CityId": 85,
        "name": "BIAK NUMFOR",
        "created_at": "2019-06-01 00:00:00+07",
        "updated_at": "2019-06-01 00:00:00+07"
    },
    {
        "ProvinceId": 24,
        "CityId": 86,
        "name": "DEIYAI",
        "created_at": "2019-06-01 00:00:00+07",
        "updated_at": "2019-06-01 00:00:00+07"
    },
    {
        "ProvinceId": 24,
        "CityId": 87,
        "name": "JAYAWIJAYA",
        "created_at": "2019-06-01 00:00:00+07",
        "updated_at": "2019-06-01 00:00:00+07"
    },
    {
        "ProvinceId": 24,
        "CityId": 88,
        "name": "MERAUKE",
        "created_at": "2019-06-01 00:00:00+07",
        "updated_at": "2019-06-01 00:00:00+07"
    },
    {
        "ProvinceId": 24,
        "CityId": 89,
        "name": "PANIAI",
        "created_at": "2019-06-01 00:00:00+07",
        "updated_at": "2019-06-01 00:00:00+07"
    },
    {
        "ProvinceId": 24,
        "CityId": 90,
        "name": "PEGUNUNGAN BINTANG",
        "created_at": "2019-06-01 00:00:00+07",
        "updated_at": "2019-06-01 00:00:00+07"
    },
    {
        "ProvinceId": 24,
        "CityId": 91,
        "name": "MAPPI",
        "created_at": "2019-06-01 00:00:00+07",
        "updated_at": "2019-06-01 00:00:00+07"
    },
    {
        "ProvinceId": 24,
        "CityId": 92,
        "name": "LANNY JAYA",
        "created_at": "2019-06-01 00:00:00+07",
        "updated_at": "2019-06-01 00:00:00+07"
    },
    {
        "ProvinceId": 24,
        "CityId": 93,
        "name": "SUPIORI",
        "created_at": "2019-06-01 00:00:00+07",
        "updated_at": "2019-06-01 00:00:00+07"
    },
    {
        "ProvinceId": 24,
        "CityId": 94,
        "name": "YALIMO",
        "created_at": "2019-06-01 00:00:00+07",
        "updated_at": "2019-06-01 00:00:00+07"
    },
    {
        "ProvinceId": 24,
        "CityId": 95,
        "name": "PUNCAK",
        "created_at": "2019-06-01 00:00:00+07",
        "updated_at": "2019-06-01 00:00:00+07"
    },
    {
        "ProvinceId": 24,
        "CityId": 96,
        "name": "BOVEN DIGOEL",
        "created_at": "2019-06-01 00:00:00+07",
        "updated_at": "2019-06-01 00:00:00+07"
    },
    {
        "ProvinceId": 24,
        "CityId": 97,
        "name": "ASMAT",
        "created_at": "2019-06-01 00:00:00+07",
        "updated_at": "2019-06-01 00:00:00+07"
    },
    {
        "ProvinceId": 24,
        "CityId": 98,
        "name": "DOGIYAI",
        "created_at": "2019-06-01 00:00:00+07",
        "updated_at": "2019-06-01 00:00:00+07"
    },
    {
        "ProvinceId": 24,
        "CityId": 99,
        "name": "MAMBERAMO TENGAH",
        "created_at": "2019-06-01 00:00:00+07",
        "updated_at": "2019-06-01 00:00:00+07"
    },
    {
        "ProvinceId": 24,
        "CityId": 100,
        "name": "TOLIKARA",
        "created_at": "2019-06-01 00:00:00+07",
        "updated_at": "2019-06-01 00:00:00+07"
    },
    {
        "ProvinceId": 24,
        "CityId": 101,
        "name": "YAHUKIMO",
        "created_at": "2019-06-01 00:00:00+07",
        "updated_at": "2019-06-01 00:00:00+07"
    },
    {
        "ProvinceId": 25,
        "CityId": 102,
        "name": "ROKAN HILIR",
        "created_at": "2019-06-01 00:00:00+07",
        "updated_at": "2019-06-01 00:00:00+07"
    },
    {
        "ProvinceId": 25,
        "CityId": 103,
        "name": "PELALAWAN",
        "created_at": "2019-06-01 00:00:00+07",
        "updated_at": "2019-06-01 00:00:00+07"
    },
    {
        "ProvinceId": 25,
        "CityId": 104,
        "name": "INDRAGIRI HILIR",
        "created_at": "2019-06-01 00:00:00+07",
        "updated_at": "2019-06-01 00:00:00+07"
    },
    {
        "ProvinceId": 25,
        "CityId": 105,
        "name": "KUANTAN SINGINGI",
        "created_at": "2019-06-01 00:00:00+07",
        "updated_at": "2019-06-01 00:00:00+07"
    },
    {
        "ProvinceId": 25,
        "CityId": 106,
        "name": "SIAK",
        "created_at": "2019-06-01 00:00:00+07",
        "updated_at": "2019-06-01 00:00:00+07"
    },
    {
        "ProvinceId": 25,
        "CityId": 107,
        "name": "BENGKALIS",
        "created_at": "2019-06-01 00:00:00+07",
        "updated_at": "2019-06-01 00:00:00+07"
    },
    {
        "ProvinceId": 25,
        "CityId": 108,
        "name": "INDRAGIRI HULU",
        "created_at": "2019-06-01 00:00:00+07",
        "updated_at": "2019-06-01 00:00:00+07"
    },
    {
        "ProvinceId": 25,
        "CityId": 109,
        "name": "KAMPAR",
        "created_at": "2019-06-01 00:00:00+07",
        "updated_at": "2019-06-01 00:00:00+07"
    },
    {
        "ProvinceId": 25,
        "CityId": 110,
        "name": "KOTA PEKANBARU",
        "created_at": "2019-06-01 00:00:00+07",
        "updated_at": "2019-06-01 00:00:00+07"
    },
    {
        "ProvinceId": 25,
        "CityId": 111,
        "name": "ROKAN HULU",
        "created_at": "2019-06-01 00:00:00+07",
        "updated_at": "2019-06-01 00:00:00+07"
    },
    {
        "ProvinceId": 25,
        "CityId": 112,
        "name": "MERANTI",
        "created_at": "2019-06-01 00:00:00+07",
        "updated_at": "2019-06-01 00:00:00+07"
    },
    {
        "ProvinceId": 25,
        "CityId": 113,
        "name": "KOTA DUMAI",
        "created_at": "2019-06-01 00:00:00+07",
        "updated_at": "2019-06-01 00:00:00+07"
    },
    {
        "ProvinceId": 7,
        "CityId": 114,
        "name": "PAHUWATO",
        "created_at": "2019-06-01 00:00:00+07",
        "updated_at": "2019-06-01 00:00:00+07"
    },
    {
        "ProvinceId": 7,
        "CityId": 115,
        "name": "BONE BOLANGO",
        "created_at": "2019-06-01 00:00:00+07",
        "updated_at": "2019-06-01 00:00:00+07"
    },
    {
        "ProvinceId": 7,
        "CityId": 116,
        "name": "GORONTALO UTARA",
        "created_at": "2019-06-01 00:00:00+07",
        "updated_at": "2019-06-01 00:00:00+07"
    },
    {
        "ProvinceId": 7,
        "CityId": 117,
        "name": "BOALEMO",
        "created_at": "2019-06-01 00:00:00+07",
        "updated_at": "2019-06-01 00:00:00+07"
    },
    {
        "ProvinceId": 7,
        "CityId": 118,
        "name": "GORONTALO",
        "created_at": "2019-06-01 00:00:00+07",
        "updated_at": "2019-06-01 00:00:00+07"
    },
    {
        "ProvinceId": 18,
        "CityId": 119,
        "name": "LAMPUNG TIMUR",
        "created_at": "2019-06-01 00:00:00+07",
        "updated_at": "2019-06-01 00:00:00+07"
    },
    {
        "ProvinceId": 18,
        "CityId": 120,
        "name": "MESUJI",
        "created_at": "2019-06-01 00:00:00+07",
        "updated_at": "2019-06-01 00:00:00+07"
    },
    {
        "ProvinceId": 18,
        "CityId": 121,
        "name": "PRINGSEWU",
        "created_at": "2019-06-01 00:00:00+07",
        "updated_at": "2019-06-01 00:00:00+07"
    },
    {
        "ProvinceId": 18,
        "CityId": 122,
        "name": "METRO",
        "created_at": "2019-06-01 00:00:00+07",
        "updated_at": "2019-06-01 00:00:00+07"
    },
    {
        "ProvinceId": 18,
        "CityId": 123,
        "name": "TULANG BAWANG",
        "created_at": "2019-06-01 00:00:00+07",
        "updated_at": "2019-06-01 00:00:00+07"
    },
    {
        "ProvinceId": 18,
        "CityId": 124,
        "name": "WAY KANAN",
        "created_at": "2019-06-01 00:00:00+07",
        "updated_at": "2019-06-01 00:00:00+07"
    },
    {
        "ProvinceId": 18,
        "CityId": 125,
        "name": "TULANG BAWANG BARAT",
        "created_at": "2019-06-01 00:00:00+07",
        "updated_at": "2019-06-01 00:00:00+07"
    },
    {
        "ProvinceId": 18,
        "CityId": 126,
        "name": "BANDAR LAMPUNG",
        "created_at": "2019-06-01 00:00:00+07",
        "updated_at": "2019-06-01 00:00:00+07"
    },
    {
        "ProvinceId": 18,
        "CityId": 127,
        "name": "LAMPUNG SELATAN",
        "created_at": "2019-06-01 00:00:00+07",
        "updated_at": "2019-06-01 00:00:00+07"
    },
    {
        "ProvinceId": 18,
        "CityId": 128,
        "name": "LAMPUNG BARAT",
        "created_at": "2019-06-01 00:00:00+07",
        "updated_at": "2019-06-01 00:00:00+07"
    },
    {
        "ProvinceId": 18,
        "CityId": 129,
        "name": "LAMPUNG TENGAH",
        "created_at": "2019-06-01 00:00:00+07",
        "updated_at": "2019-06-01 00:00:00+07"
    },
    {
        "ProvinceId": 18,
        "CityId": 130,
        "name": "LAMPUNG UTARA",
        "created_at": "2019-06-01 00:00:00+07",
        "updated_at": "2019-06-01 00:00:00+07"
    },
    {
        "ProvinceId": 18,
        "CityId": 131,
        "name": "PESISIR BARAT",
        "created_at": "2019-06-01 00:00:00+07",
        "updated_at": "2019-06-01 00:00:00+07"
    },
    {
        "ProvinceId": 18,
        "CityId": 132,
        "name": "TANGGAMUS",
        "created_at": "2019-06-01 00:00:00+07",
        "updated_at": "2019-06-01 00:00:00+07"
    },
    {
        "ProvinceId": 18,
        "CityId": 133,
        "name": "PESAWARAN",
        "created_at": "2019-06-01 00:00:00+07",
        "updated_at": "2019-06-01 00:00:00+07"
    },
    {
        "ProvinceId": 15,
        "CityId": 134,
        "name": "MURUNG RAYA",
        "created_at": "2019-06-01 00:00:00+07",
        "updated_at": "2019-06-01 00:00:00+07"
    },
    {
        "ProvinceId": 15,
        "CityId": 135,
        "name": "BARITO UTARA",
        "created_at": "2019-06-01 00:00:00+07",
        "updated_at": "2019-06-01 00:00:00+07"
    },
    {
        "ProvinceId": 15,
        "CityId": 136,
        "name": "KOTAWARINGIN BARAT",
        "created_at": "2019-06-01 00:00:00+07",
        "updated_at": "2019-06-01 00:00:00+07"
    },
    {
        "ProvinceId": 15,
        "CityId": 137,
        "name": "BARITO TIMUR",
        "created_at": "2019-06-01 00:00:00+07",
        "updated_at": "2019-06-01 00:00:00+07"
    },
    {
        "ProvinceId": 15,
        "CityId": 138,
        "name": "KOTAWARINGIN TIMUR",
        "created_at": "2019-06-01 00:00:00+07",
        "updated_at": "2019-06-01 00:00:00+07"
    },
    {
        "ProvinceId": 15,
        "CityId": 139,
        "name": "BARITO SELATAN",
        "created_at": "2019-06-01 00:00:00+07",
        "updated_at": "2019-06-01 00:00:00+07"
    },
    {
        "ProvinceId": 15,
        "CityId": 140,
        "name": "KAPUAS",
        "created_at": "2019-06-01 00:00:00+07",
        "updated_at": "2019-06-01 00:00:00+07"
    },
    {
        "ProvinceId": 15,
        "CityId": 141,
        "name": "LAMANDAU",
        "created_at": "2019-06-01 00:00:00+07",
        "updated_at": "2019-06-01 00:00:00+07"
    },
    {
        "ProvinceId": 15,
        "CityId": 142,
        "name": "PULANG PISAU",
        "created_at": "2019-06-01 00:00:00+07",
        "updated_at": "2019-06-01 00:00:00+07"
    },
    {
        "ProvinceId": 15,
        "CityId": 143,
        "name": "GUNUNG MAS",
        "created_at": "2019-06-01 00:00:00+07",
        "updated_at": "2019-06-01 00:00:00+07"
    },
    {
        "ProvinceId": 15,
        "CityId": 144,
        "name": "KATINGAN",
        "created_at": "2019-06-01 00:00:00+07",
        "updated_at": "2019-06-01 00:00:00+07"
    },
    {
        "ProvinceId": 15,
        "CityId": 145,
        "name": "KOTA PALANGKARAYA",
        "created_at": "2019-06-01 00:00:00+07",
        "updated_at": "2019-06-01 00:00:00+07"
    },
    {
        "ProvinceId": 15,
        "CityId": 146,
        "name": "SUKAMARA",
        "created_at": "2019-06-01 00:00:00+07",
        "updated_at": "2019-06-01 00:00:00+07"
    },
    {
        "ProvinceId": 15,
        "CityId": 147,
        "name": "SERUYAN",
        "created_at": "2019-06-01 00:00:00+07",
        "updated_at": "2019-06-01 00:00:00+07"
    },
    {
        "ProvinceId": 34,
        "CityId": 148,
        "name": "BULUNGAN",
        "created_at": "2019-06-01 00:00:00+07",
        "updated_at": "2019-06-01 00:00:00+07"
    },
    {
        "ProvinceId": 34,
        "CityId": 149,
        "name": "TANA TIDUNG",
        "created_at": "2019-06-01 00:00:00+07",
        "updated_at": "2019-06-01 00:00:00+07"
    },
    {
        "ProvinceId": 34,
        "CityId": 150,
        "name": "KOTA TARAKAN",
        "created_at": "2019-06-01 00:00:00+07",
        "updated_at": "2019-06-01 00:00:00+07"
    },
    {
        "ProvinceId": 34,
        "CityId": 151,
        "name": "MALINAU",
        "created_at": "2019-06-01 00:00:00+07",
        "updated_at": "2019-06-01 00:00:00+07"
    },
    {
        "ProvinceId": 34,
        "CityId": 152,
        "name": "NUNUKAN",
        "created_at": "2019-06-01 00:00:00+07",
        "updated_at": "2019-06-01 00:00:00+07"
    },
    {
        "ProvinceId": 28,
        "CityId": 153,
        "name": "BANGGAI",
        "created_at": "2019-06-01 00:00:00+07",
        "updated_at": "2019-06-01 00:00:00+07"
    },
    {
        "ProvinceId": 28,
        "CityId": 154,
        "name": "TOLI TOLI",
        "created_at": "2019-06-01 00:00:00+07",
        "updated_at": "2019-06-01 00:00:00+07"
    },
    {
        "ProvinceId": 28,
        "CityId": 155,
        "name": "BANGGAI LAUT",
        "created_at": "2019-06-01 00:00:00+07",
        "updated_at": "2019-06-01 00:00:00+07"
    },
    {
        "ProvinceId": 28,
        "CityId": 156,
        "name": "DONGGALA",
        "created_at": "2019-06-01 00:00:00+07",
        "updated_at": "2019-06-01 00:00:00+07"
    },
    {
        "ProvinceId": 28,
        "CityId": 157,
        "name": "PARIGI MOUTONG",
        "created_at": "2019-06-01 00:00:00+07",
        "updated_at": "2019-06-01 00:00:00+07"
    },
    {
        "ProvinceId": 28,
        "CityId": 158,
        "name": "BUOL",
        "created_at": "2019-06-01 00:00:00+07",
        "updated_at": "2019-06-01 00:00:00+07"
    },
    {
        "ProvinceId": 28,
        "CityId": 159,
        "name": "MOROWALI",
        "created_at": "2019-06-01 00:00:00+07",
        "updated_at": "2019-06-01 00:00:00+07"
    },
    {
        "ProvinceId": 28,
        "CityId": 160,
        "name": "MOROWALI UTARA",
        "created_at": "2019-06-01 00:00:00+07",
        "updated_at": "2019-06-01 00:00:00+07"
    },
    {
        "ProvinceId": 28,
        "CityId": 161,
        "name": "BANGGAI KEPULAUAN",
        "created_at": "2019-06-01 00:00:00+07",
        "updated_at": "2019-06-01 00:00:00+07"
    },
    {
        "ProvinceId": 28,
        "CityId": 162,
        "name": "TOJO UNA UNA",
        "created_at": "2019-06-01 00:00:00+07",
        "updated_at": "2019-06-01 00:00:00+07"
    },
    {
        "ProvinceId": 28,
        "CityId": 163,
        "name": "POSO",
        "created_at": "2019-06-01 00:00:00+07",
        "updated_at": "2019-06-01 00:00:00+07"
    },
    {
        "ProvinceId": 28,
        "CityId": 164,
        "name": "SIGI",
        "created_at": "2019-06-01 00:00:00+07",
        "updated_at": "2019-06-01 00:00:00+07"
    },
    {
        "ProvinceId": 28,
        "CityId": 165,
        "name": "PALU",
        "created_at": "2019-06-01 00:00:00+07",
        "updated_at": "2019-06-01 00:00:00+07"
    },
    {
        "ProvinceId": 27,
        "CityId": 166,
        "name": "PANGKAJENE KEPULAUAN",
        "created_at": "2019-06-01 00:00:00+07",
        "updated_at": "2019-06-01 00:00:00+07"
    },
    {
        "ProvinceId": 27,
        "CityId": 167,
        "name": "KEPULAUAN SELAYAR",
        "created_at": "2019-06-01 00:00:00+07",
        "updated_at": "2019-06-01 00:00:00+07"
    },
    {
        "ProvinceId": 27,
        "CityId": 168,
        "name": "SOPPENG",
        "created_at": "2019-06-01 00:00:00+07",
        "updated_at": "2019-06-01 00:00:00+07"
    },
    {
        "ProvinceId": 27,
        "CityId": 169,
        "name": "LUWU",
        "created_at": "2019-06-01 00:00:00+07",
        "updated_at": "2019-06-01 00:00:00+07"
    },
    {
        "ProvinceId": 27,
        "CityId": 170,
        "name": "SIDENRENG RAPPANG",
        "created_at": "2019-06-01 00:00:00+07",
        "updated_at": "2019-06-01 00:00:00+07"
    },
    {
        "ProvinceId": 27,
        "CityId": 171,
        "name": "LUWU TIMUR",
        "created_at": "2019-06-01 00:00:00+07",
        "updated_at": "2019-06-01 00:00:00+07"
    },
    {
        "ProvinceId": 27,
        "CityId": 172,
        "name": "WAJO",
        "created_at": "2019-06-01 00:00:00+07",
        "updated_at": "2019-06-01 00:00:00+07"
    },
    {
        "ProvinceId": 27,
        "CityId": 173,
        "name": "PINRANG",
        "created_at": "2019-06-01 00:00:00+07",
        "updated_at": "2019-06-01 00:00:00+07"
    },
    {
        "ProvinceId": 27,
        "CityId": 174,
        "name": "PALOPO",
        "created_at": "2019-06-01 00:00:00+07",
        "updated_at": "2019-06-01 00:00:00+07"
    },
    {
        "ProvinceId": 27,
        "CityId": 175,
        "name": "TAKALAR",
        "created_at": "2019-06-01 00:00:00+07",
        "updated_at": "2019-06-01 00:00:00+07"
    },
    {
        "ProvinceId": 27,
        "CityId": 176,
        "name": "TORAJA UTARA",
        "created_at": "2019-06-01 00:00:00+07",
        "updated_at": "2019-06-01 00:00:00+07"
    },
    {
        "ProvinceId": 27,
        "CityId": 177,
        "name": "BULUKUMBA",
        "created_at": "2019-06-01 00:00:00+07",
        "updated_at": "2019-06-01 00:00:00+07"
    },
    {
        "ProvinceId": 27,
        "CityId": 178,
        "name": "SINJAI",
        "created_at": "2019-06-01 00:00:00+07",
        "updated_at": "2019-06-01 00:00:00+07"
    },
    {
        "ProvinceId": 27,
        "CityId": 179,
        "name": "JENEPONTO",
        "created_at": "2019-06-01 00:00:00+07",
        "updated_at": "2019-06-01 00:00:00+07"
    },
    {
        "ProvinceId": 27,
        "CityId": 180,
        "name": "GOWA",
        "created_at": "2019-06-01 00:00:00+07",
        "updated_at": "2019-06-01 00:00:00+07"
    },
    {
        "ProvinceId": 27,
        "CityId": 181,
        "name": "PARE PARE",
        "created_at": "2019-06-01 00:00:00+07",
        "updated_at": "2019-06-01 00:00:00+07"
    },
    {
        "ProvinceId": 27,
        "CityId": 182,
        "name": "TANA TORAJA",
        "created_at": "2019-06-01 00:00:00+07",
        "updated_at": "2019-06-01 00:00:00+07"
    },
    {
        "ProvinceId": 27,
        "CityId": 183,
        "name": "BARRU",
        "created_at": "2019-06-01 00:00:00+07",
        "updated_at": "2019-06-01 00:00:00+07"
    },
    {
        "ProvinceId": 27,
        "CityId": 184,
        "name": "LUWU UTARA",
        "created_at": "2019-06-01 00:00:00+07",
        "updated_at": "2019-06-01 00:00:00+07"
    },
    {
        "ProvinceId": 27,
        "CityId": 185,
        "name": "ENREKANG",
        "created_at": "2019-06-01 00:00:00+07",
        "updated_at": "2019-06-01 00:00:00+07"
    },
    {
        "ProvinceId": 27,
        "CityId": 186,
        "name": "BANTAENG",
        "created_at": "2019-06-01 00:00:00+07",
        "updated_at": "2019-06-01 00:00:00+07"
    },
    {
        "ProvinceId": 27,
        "CityId": 187,
        "name": "MAROS",
        "created_at": "2019-06-01 00:00:00+07",
        "updated_at": "2019-06-01 00:00:00+07"
    },
    {
        "ProvinceId": 27,
        "CityId": 188,
        "name": "BONE",
        "created_at": "2019-06-01 00:00:00+07",
        "updated_at": "2019-06-01 00:00:00+07"
    },
    {
        "ProvinceId": 27,
        "CityId": 189,
        "name": "MAKASSAR",
        "created_at": "2019-06-01 00:00:00+07",
        "updated_at": "2019-06-01 00:00:00+07"
    },
    {
        "ProvinceId": 19,
        "CityId": 190,
        "name": "MALUKU TENGAH",
        "created_at": "2019-06-01 00:00:00+07",
        "updated_at": "2019-06-01 00:00:00+07"
    },
    {
        "ProvinceId": 19,
        "CityId": 191,
        "name": "SERAM BAGIAN BARAT",
        "created_at": "2019-06-01 00:00:00+07",
        "updated_at": "2019-06-01 00:00:00+07"
    },
    {
        "ProvinceId": 19,
        "CityId": 192,
        "name": "MALUKU TENGGARA BARAT",
        "created_at": "2019-06-01 00:00:00+07",
        "updated_at": "2019-06-01 00:00:00+07"
    },
    {
        "ProvinceId": 19,
        "CityId": 193,
        "name": "KEPULAUAN ARU",
        "created_at": "2019-06-01 00:00:00+07",
        "updated_at": "2019-06-01 00:00:00+07"
    },
    {
        "ProvinceId": 19,
        "CityId": 194,
        "name": "BURU SELATAN",
        "created_at": "2019-06-01 00:00:00+07",
        "updated_at": "2019-06-01 00:00:00+07"
    },
    {
        "ProvinceId": 19,
        "CityId": 195,
        "name": "AMBON",
        "created_at": "2019-06-01 00:00:00+07",
        "updated_at": "2019-06-01 00:00:00+07"
    },
    {
        "ProvinceId": 19,
        "CityId": 196,
        "name": "MALUKU BARAT DAYA",
        "created_at": "2019-06-01 00:00:00+07",
        "updated_at": "2019-06-01 00:00:00+07"
    },
    {
        "ProvinceId": 19,
        "CityId": 197,
        "name": "BURU",
        "created_at": "2019-06-01 00:00:00+07",
        "updated_at": "2019-06-01 00:00:00+07"
    },
    {
        "ProvinceId": 19,
        "CityId": 198,
        "name": "MALUKU TENGGARA",
        "created_at": "2019-06-01 00:00:00+07",
        "updated_at": "2019-06-01 00:00:00+07"
    },
    {
        "ProvinceId": 19,
        "CityId": 199,
        "name": "TUAL",
        "created_at": "2019-06-01 00:00:00+07",
        "updated_at": "2019-06-01 00:00:00+07"
    },
    {
        "ProvinceId": 19,
        "CityId": 200,
        "name": "SERAM BAGIAN TIMUR",
        "created_at": "2019-06-01 00:00:00+07",
        "updated_at": "2019-06-01 00:00:00+07"
    },
    {
        "ProvinceId": 21,
        "CityId": 201,
        "name": "GAYO LUES",
        "created_at": "2019-06-01 00:00:00+07",
        "updated_at": "2019-06-01 00:00:00+07"
    },
    {
        "ProvinceId": 21,
        "CityId": 202,
        "name": "ACEH BARAT DAYA",
        "created_at": "2019-06-01 00:00:00+07",
        "updated_at": "2019-06-01 00:00:00+07"
    },
    {
        "ProvinceId": 21,
        "CityId": 203,
        "name": "ACEH JAYA",
        "created_at": "2019-06-01 00:00:00+07",
        "updated_at": "2019-06-01 00:00:00+07"
    },
    {
        "ProvinceId": 21,
        "CityId": 204,
        "name": "BANDA ACEH",
        "created_at": "2019-06-01 00:00:00+07",
        "updated_at": "2019-06-01 00:00:00+07"
    },
    {
        "ProvinceId": 21,
        "CityId": 205,
        "name": "ACEH UTARA",
        "created_at": "2019-06-01 00:00:00+07",
        "updated_at": "2019-06-01 00:00:00+07"
    },
    {
        "ProvinceId": 21,
        "CityId": 206,
        "name": "ACEH TIMUR",
        "created_at": "2019-06-01 00:00:00+07",
        "updated_at": "2019-06-01 00:00:00+07"
    },
    {
        "ProvinceId": 21,
        "CityId": 207,
        "name": "ACEH SELATAN",
        "created_at": "2019-06-01 00:00:00+07",
        "updated_at": "2019-06-01 00:00:00+07"
    },
    {
        "ProvinceId": 21,
        "CityId": 208,
        "name": "PIDIE JAYA",
        "created_at": "2019-06-01 00:00:00+07",
        "updated_at": "2019-06-01 00:00:00+07"
    },
    {
        "ProvinceId": 21,
        "CityId": 209,
        "name": "ACEH SINGKIL",
        "created_at": "2019-06-01 00:00:00+07",
        "updated_at": "2019-06-01 00:00:00+07"
    },
    {
        "ProvinceId": 21,
        "CityId": 210,
        "name": "ACEH TAMIANG",
        "created_at": "2019-06-01 00:00:00+07",
        "updated_at": "2019-06-01 00:00:00+07"
    },
    {
        "ProvinceId": 21,
        "CityId": 211,
        "name": "PIDIE",
        "created_at": "2019-06-01 00:00:00+07",
        "updated_at": "2019-06-01 00:00:00+07"
    },
    {
        "ProvinceId": 21,
        "CityId": 212,
        "name": "SABANG",
        "created_at": "2019-06-01 00:00:00+07",
        "updated_at": "2019-06-01 00:00:00+07"
    },
    {
        "ProvinceId": 21,
        "CityId": 213,
        "name": "ACEH TENGAH",
        "created_at": "2019-06-01 00:00:00+07",
        "updated_at": "2019-06-01 00:00:00+07"
    },
    {
        "ProvinceId": 21,
        "CityId": 214,
        "name": "SIMEULUE",
        "created_at": "2019-06-01 00:00:00+07",
        "updated_at": "2019-06-01 00:00:00+07"
    },
    {
        "ProvinceId": 21,
        "CityId": 215,
        "name": "LANGSA",
        "created_at": "2019-06-01 00:00:00+07",
        "updated_at": "2019-06-01 00:00:00+07"
    },
    {
        "ProvinceId": 21,
        "CityId": 216,
        "name": "LHOKSEUMAWE",
        "created_at": "2019-06-01 00:00:00+07",
        "updated_at": "2019-06-01 00:00:00+07"
    },
    {
        "ProvinceId": 21,
        "CityId": 217,
        "name": "BIREUEN",
        "created_at": "2019-06-01 00:00:00+07",
        "updated_at": "2019-06-01 00:00:00+07"
    },
    {
        "ProvinceId": 21,
        "CityId": 218,
        "name": "ACEH BARAT",
        "created_at": "2019-06-01 00:00:00+07",
        "updated_at": "2019-06-01 00:00:00+07"
    },
    {
        "ProvinceId": 21,
        "CityId": 219,
        "name": "ACEH BESAR",
        "created_at": "2019-06-01 00:00:00+07",
        "updated_at": "2019-06-01 00:00:00+07"
    },
    {
        "ProvinceId": 21,
        "CityId": 220,
        "name": "SUBULUSSALAM",
        "created_at": "2019-06-01 00:00:00+07",
        "updated_at": "2019-06-01 00:00:00+07"
    },
    {
        "ProvinceId": 21,
        "CityId": 221,
        "name": "NAGAN RAYA",
        "created_at": "2019-06-01 00:00:00+07",
        "updated_at": "2019-06-01 00:00:00+07"
    },
    {
        "ProvinceId": 21,
        "CityId": 222,
        "name": "BENER MERIAH",
        "created_at": "2019-06-01 00:00:00+07",
        "updated_at": "2019-06-01 00:00:00+07"
    },
    {
        "ProvinceId": 21,
        "CityId": 223,
        "name": "ACEH TENGGARA",
        "created_at": "2019-06-01 00:00:00+07",
        "updated_at": "2019-06-01 00:00:00+07"
    },
    {
        "ProvinceId": 32,
        "CityId": 224,
        "name": "BANYUASIN",
        "created_at": "2019-06-01 00:00:00+07",
        "updated_at": "2019-06-01 00:00:00+07"
    },
    {
        "ProvinceId": 32,
        "CityId": 225,
        "name": "OGAN ILIR",
        "created_at": "2019-06-01 00:00:00+07",
        "updated_at": "2019-06-01 00:00:00+07"
    },
    {
        "ProvinceId": 32,
        "CityId": 226,
        "name": "PRABUMULIH",
        "created_at": "2019-06-01 00:00:00+07",
        "updated_at": "2019-06-01 00:00:00+07"
    },
    {
        "ProvinceId": 32,
        "CityId": 227,
        "name": "EMPAT LAWANG",
        "created_at": "2019-06-01 00:00:00+07",
        "updated_at": "2019-06-01 00:00:00+07"
    },
    {
        "ProvinceId": 32,
        "CityId": 228,
        "name": "LAHAT",
        "created_at": "2019-06-01 00:00:00+07",
        "updated_at": "2019-06-01 00:00:00+07"
    },
    {
        "ProvinceId": 32,
        "CityId": 229,
        "name": "MUARA ENIM",
        "created_at": "2019-06-01 00:00:00+07",
        "updated_at": "2019-06-01 00:00:00+07"
    },
    {
        "ProvinceId": 32,
        "CityId": 230,
        "name": "MUSI RAWAS",
        "created_at": "2019-06-01 00:00:00+07",
        "updated_at": "2019-06-01 00:00:00+07"
    },
    {
        "ProvinceId": 32,
        "CityId": 231,
        "name": "OGAN KOMERING ULU",
        "created_at": "2019-06-01 00:00:00+07",
        "updated_at": "2019-06-01 00:00:00+07"
    },
    {
        "ProvinceId": 32,
        "CityId": 232,
        "name": "PENUKAL ABAB LEMATANG ILIR",
        "created_at": "2019-06-01 00:00:00+07",
        "updated_at": "2019-06-01 00:00:00+07"
    },
    {
        "ProvinceId": 32,
        "CityId": 233,
        "name": "LUBUKLINGGAU",
        "created_at": "2019-06-01 00:00:00+07",
        "updated_at": "2019-06-01 00:00:00+07"
    },
    {
        "ProvinceId": 32,
        "CityId": 234,
        "name": "OGAN KOMERING ULU SELATAN",
        "created_at": "2019-06-01 00:00:00+07",
        "updated_at": "2019-06-01 00:00:00+07"
    },
    {
        "ProvinceId": 32,
        "CityId": 235,
        "name": "MUSI BANYUASIN",
        "created_at": "2019-06-01 00:00:00+07",
        "updated_at": "2019-06-01 00:00:00+07"
    },
    {
        "ProvinceId": 32,
        "CityId": 236,
        "name": "OGAN KOMERING ILIR",
        "created_at": "2019-06-01 00:00:00+07",
        "updated_at": "2019-06-01 00:00:00+07"
    },
    {
        "ProvinceId": 32,
        "CityId": 237,
        "name": "PALEMBANG",
        "created_at": "2019-06-01 00:00:00+07",
        "updated_at": "2019-06-01 00:00:00+07"
    },
    {
        "ProvinceId": 32,
        "CityId": 238,
        "name": "PAGAR ALAM",
        "created_at": "2019-06-01 00:00:00+07",
        "updated_at": "2019-06-01 00:00:00+07"
    },
    {
        "ProvinceId": 32,
        "CityId": 239,
        "name": "OGAN KOMERING ULU TIMUR",
        "created_at": "2019-06-01 00:00:00+07",
        "updated_at": "2019-06-01 00:00:00+07"
    },
    {
        "ProvinceId": 22,
        "CityId": 240,
        "name": "LOMBOK TIMUR",
        "created_at": "2019-06-01 00:00:00+07",
        "updated_at": "2019-06-01 00:00:00+07"
    },
    {
        "ProvinceId": 22,
        "CityId": 241,
        "name": "LOMBOK BARAT",
        "created_at": "2019-06-01 00:00:00+07",
        "updated_at": "2019-06-01 00:00:00+07"
    },
    {
        "ProvinceId": 22,
        "CityId": 242,
        "name": "DOMPU",
        "created_at": "2019-06-01 00:00:00+07",
        "updated_at": "2019-06-01 00:00:00+07"
    },
    {
        "ProvinceId": 22,
        "CityId": 243,
        "name": "BIMA",
        "created_at": "2019-06-01 00:00:00+07",
        "updated_at": "2019-06-01 00:00:00+07"
    },
    {
        "ProvinceId": 22,
        "CityId": 244,
        "name": "KOTA MATARAM",
        "created_at": "2019-06-01 00:00:00+07",
        "updated_at": "2019-06-01 00:00:00+07"
    },
    {
        "ProvinceId": 22,
        "CityId": 245,
        "name": "SUMBAWA",
        "created_at": "2019-06-01 00:00:00+07",
        "updated_at": "2019-06-01 00:00:00+07"
    },
    {
        "ProvinceId": 22,
        "CityId": 246,
        "name": "LOMBOK UTARA",
        "created_at": "2019-06-01 00:00:00+07",
        "updated_at": "2019-06-01 00:00:00+07"
    },
    {
        "ProvinceId": 22,
        "CityId": 247,
        "name": "LOMBOK TENGAH",
        "created_at": "2019-06-01 00:00:00+07",
        "updated_at": "2019-06-01 00:00:00+07"
    },
    {
        "ProvinceId": 22,
        "CityId": 248,
        "name": "KOTA BIMA",
        "created_at": "2019-06-01 00:00:00+07",
        "updated_at": "2019-06-01 00:00:00+07"
    },
    {
        "ProvinceId": 22,
        "CityId": 249,
        "name": "SUMBAWA BARAT",
        "created_at": "2019-06-01 00:00:00+07",
        "updated_at": "2019-06-01 00:00:00+07"
    },
    {
        "ProvinceId": 33,
        "CityId": 250,
        "name": "SIMALUNGUN",
        "created_at": "2019-06-01 00:00:00+07",
        "updated_at": "2019-06-01 00:00:00+07"
    },
    {
        "ProvinceId": 33,
        "CityId": 251,
        "name": "TAPANULI SELATAN",
        "created_at": "2019-06-01 00:00:00+07",
        "updated_at": "2019-06-01 00:00:00+07"
    },
    {
        "ProvinceId": 33,
        "CityId": 252,
        "name": "TEBING TINGGI",
        "created_at": "2019-06-01 00:00:00+07",
        "updated_at": "2019-06-01 00:00:00+07"
    },
    {
        "ProvinceId": 33,
        "CityId": 253,
        "name": "MEDAN",
        "created_at": "2019-06-01 00:00:00+07",
        "updated_at": "2019-06-01 00:00:00+07"
    },
    {
        "ProvinceId": 33,
        "CityId": 254,
        "name": "BATU BARA",
        "created_at": "2019-06-01 00:00:00+07",
        "updated_at": "2019-06-01 00:00:00+07"
    },
    {
        "ProvinceId": 33,
        "CityId": 255,
        "name": "LABUHAN BATU SELATAN",
        "created_at": "2019-06-01 00:00:00+07",
        "updated_at": "2019-06-01 00:00:00+07"
    },
    {
        "ProvinceId": 33,
        "CityId": 256,
        "name": "DELI SERDANG",
        "created_at": "2019-06-01 00:00:00+07",
        "updated_at": "2019-06-01 00:00:00+07"
    },
    {
        "ProvinceId": 33,
        "CityId": 257,
        "name": "NIAS",
        "created_at": "2019-06-01 00:00:00+07",
        "updated_at": "2019-06-01 00:00:00+07"
    },
    {
        "ProvinceId": 33,
        "CityId": 258,
        "name": "TAPANULI TENGAH",
        "created_at": "2019-06-01 00:00:00+07",
        "updated_at": "2019-06-01 00:00:00+07"
    },
    {
        "ProvinceId": 33,
        "CityId": 259,
        "name": "PADANG LAWAS UTARA",
        "created_at": "2019-06-01 00:00:00+07",
        "updated_at": "2019-06-01 00:00:00+07"
    },
    {
        "ProvinceId": 33,
        "CityId": 260,
        "name": "HUMBANG HASUNDUTAN",
        "created_at": "2019-06-01 00:00:00+07",
        "updated_at": "2019-06-01 00:00:00+07"
    },
    {
        "ProvinceId": 33,
        "CityId": 261,
        "name": "PEMATANGSIANTAR",
        "created_at": "2019-06-01 00:00:00+07",
        "updated_at": "2019-06-01 00:00:00+07"
    },
    {
        "ProvinceId": 33,
        "CityId": 262,
        "name": "TAPANULI UTARA",
        "created_at": "2019-06-01 00:00:00+07",
        "updated_at": "2019-06-01 00:00:00+07"
    },
    {
        "ProvinceId": 33,
        "CityId": 263,
        "name": "NIAS UTARA",
        "created_at": "2019-06-01 00:00:00+07",
        "updated_at": "2019-06-01 00:00:00+07"
    },
    {
        "ProvinceId": 33,
        "CityId": 264,
        "name": "ASAHAN",
        "created_at": "2019-06-01 00:00:00+07",
        "updated_at": "2019-06-01 00:00:00+07"
    },
    {
        "ProvinceId": 33,
        "CityId": 265,
        "name": "SIBOLGA",
        "created_at": "2019-06-01 00:00:00+07",
        "updated_at": "2019-06-01 00:00:00+07"
    },
    {
        "ProvinceId": 33,
        "CityId": 266,
        "name": "SERDANG BEDAGAI",
        "created_at": "2019-06-01 00:00:00+07",
        "updated_at": "2019-06-01 00:00:00+07"
    },
    {
        "ProvinceId": 33,
        "CityId": 267,
        "name": "PAKPAK BHARAT",
        "created_at": "2019-06-01 00:00:00+07",
        "updated_at": "2019-06-01 00:00:00+07"
    },
    {
        "ProvinceId": 33,
        "CityId": 268,
        "name": "LANGKAT",
        "created_at": "2019-06-01 00:00:00+07",
        "updated_at": "2019-06-01 00:00:00+07"
    },
    {
        "ProvinceId": 33,
        "CityId": 269,
        "name": "MANDAILING NATAL",
        "created_at": "2019-06-01 00:00:00+07",
        "updated_at": "2019-06-01 00:00:00+07"
    },
    {
        "ProvinceId": 33,
        "CityId": 270,
        "name": "BINJAI",
        "created_at": "2019-06-01 00:00:00+07",
        "updated_at": "2019-06-01 00:00:00+07"
    },
    {
        "ProvinceId": 33,
        "CityId": 271,
        "name": "TOBA SAMOSIR",
        "created_at": "2019-06-01 00:00:00+07",
        "updated_at": "2019-06-01 00:00:00+07"
    },
    {
        "ProvinceId": 33,
        "CityId": 272,
        "name": "NIAS BARAT",
        "created_at": "2019-06-01 00:00:00+07",
        "updated_at": "2019-06-01 00:00:00+07"
    },
    {
        "ProvinceId": 33,
        "CityId": 273,
        "name": "NIAS SELATAN",
        "created_at": "2019-06-01 00:00:00+07",
        "updated_at": "2019-06-01 00:00:00+07"
    },
    {
        "ProvinceId": 33,
        "CityId": 274,
        "name": "PADANG SIDEMPUAN",
        "created_at": "2019-06-01 00:00:00+07",
        "updated_at": "2019-06-01 00:00:00+07"
    },
    {
        "ProvinceId": 33,
        "CityId": 275,
        "name": "PADANG LAWAS",
        "created_at": "2019-06-01 00:00:00+07",
        "updated_at": "2019-06-01 00:00:00+07"
    },
    {
        "ProvinceId": 33,
        "CityId": 276,
        "name": "GUNUNGSITOLI",
        "created_at": "2019-06-01 00:00:00+07",
        "updated_at": "2019-06-01 00:00:00+07"
    },
    {
        "ProvinceId": 33,
        "CityId": 277,
        "name": "LABUHAN BATU",
        "created_at": "2019-06-01 00:00:00+07",
        "updated_at": "2019-06-01 00:00:00+07"
    },
    {
        "ProvinceId": 33,
        "CityId": 278,
        "name": "KARO",
        "created_at": "2019-06-01 00:00:00+07",
        "updated_at": "2019-06-01 00:00:00+07"
    },
    {
        "ProvinceId": 33,
        "CityId": 279,
        "name": "LABUHAN BATU UTARA",
        "created_at": "2019-06-01 00:00:00+07",
        "updated_at": "2019-06-01 00:00:00+07"
    },
    {
        "ProvinceId": 33,
        "CityId": 280,
        "name": "TANJUNG BALAI",
        "created_at": "2019-06-01 00:00:00+07",
        "updated_at": "2019-06-01 00:00:00+07"
    },
    {
        "ProvinceId": 33,
        "CityId": 281,
        "name": "SAMOSIR",
        "created_at": "2019-06-01 00:00:00+07",
        "updated_at": "2019-06-01 00:00:00+07"
    },
    {
        "ProvinceId": 33,
        "CityId": 282,
        "name": "DAIRI",
        "created_at": "2019-06-01 00:00:00+07",
        "updated_at": "2019-06-01 00:00:00+07"
    },
    {
        "ProvinceId": 26,
        "CityId": 283,
        "name": "MAMUJU UTARA",
        "created_at": "2019-06-01 00:00:00+07",
        "updated_at": "2019-06-01 00:00:00+07"
    },
    {
        "ProvinceId": 26,
        "CityId": 284,
        "name": "MAMUJU TENGAH",
        "created_at": "2019-06-01 00:00:00+07",
        "updated_at": "2019-06-01 00:00:00+07"
    },
    {
        "ProvinceId": 26,
        "CityId": 285,
        "name": "POLEWALI MANDAR",
        "created_at": "2019-06-01 00:00:00+07",
        "updated_at": "2019-06-01 00:00:00+07"
    },
    {
        "ProvinceId": 26,
        "CityId": 286,
        "name": "MAMUJU",
        "created_at": "2019-06-01 00:00:00+07",
        "updated_at": "2019-06-01 00:00:00+07"
    },
    {
        "ProvinceId": 26,
        "CityId": 287,
        "name": "MAMASA",
        "created_at": "2019-06-01 00:00:00+07",
        "updated_at": "2019-06-01 00:00:00+07"
    },
    {
        "ProvinceId": 26,
        "CityId": 288,
        "name": "MAJENE",
        "created_at": "2019-06-01 00:00:00+07",
        "updated_at": "2019-06-01 00:00:00+07"
    },
    {
        "ProvinceId": 1,
        "CityId": 289,
        "name": "JEMBRANA",
        "created_at": "2019-06-01 00:00:00+07",
        "updated_at": "2019-06-01 00:00:00+07"
    },
    {
        "ProvinceId": 1,
        "CityId": 290,
        "name": "BULELENG",
        "created_at": "2019-06-01 00:00:00+07",
        "updated_at": "2019-06-01 00:00:00+07"
    },
    {
        "ProvinceId": 1,
        "CityId": 291,
        "name": "KARANGASEM",
        "created_at": "2019-06-01 00:00:00+07",
        "updated_at": "2019-06-01 00:00:00+07"
    },
    {
        "ProvinceId": 1,
        "CityId": 292,
        "name": "KOTA DENPASAR",
        "created_at": "2019-06-01 00:00:00+07",
        "updated_at": "2019-06-01 00:00:00+07"
    },
    {
        "ProvinceId": 1,
        "CityId": 293,
        "name": "TABANAN",
        "created_at": "2019-06-01 00:00:00+07",
        "updated_at": "2019-06-01 00:00:00+07"
    },
    {
        "ProvinceId": 1,
        "CityId": 294,
        "name": "BADUNG",
        "created_at": "2019-06-01 00:00:00+07",
        "updated_at": "2019-06-01 00:00:00+07"
    },
    {
        "ProvinceId": 1,
        "CityId": 295,
        "name": "KLUNGKUNG",
        "created_at": "2019-06-01 00:00:00+07",
        "updated_at": "2019-06-01 00:00:00+07"
    },
    {
        "ProvinceId": 1,
        "CityId": 296,
        "name": "BANGLI",
        "created_at": "2019-06-01 00:00:00+07",
        "updated_at": "2019-06-01 00:00:00+07"
    },
    {
        "ProvinceId": 1,
        "CityId": 297,
        "name": "GIANYAR",
        "created_at": "2019-06-01 00:00:00+07",
        "updated_at": "2019-06-01 00:00:00+07"
    },
    {
        "ProvinceId": 16,
        "CityId": 298,
        "name": "KUTAI TIMUR",
        "created_at": "2019-06-01 00:00:00+07",
        "updated_at": "2019-06-01 00:00:00+07"
    },
    {
        "ProvinceId": 16,
        "CityId": 299,
        "name": "KOTA BONTANG",
        "created_at": "2019-06-01 00:00:00+07",
        "updated_at": "2019-06-01 00:00:00+07"
    },
    {
        "ProvinceId": 16,
        "CityId": 300,
        "name": "BERAU",
        "created_at": "2019-06-01 00:00:00+07",
        "updated_at": "2019-06-01 00:00:00+07"
    },
    {
        "ProvinceId": 16,
        "CityId": 301,
        "name": "PENAJAM PASIR UTARA",
        "created_at": "2019-06-01 00:00:00+07",
        "updated_at": "2019-06-01 00:00:00+07"
    },
    {
        "ProvinceId": 16,
        "CityId": 302,
        "name": "KOTA BALIKPAPAN",
        "created_at": "2019-06-01 00:00:00+07",
        "updated_at": "2019-06-01 00:00:00+07"
    },
    {
        "ProvinceId": 16,
        "CityId": 303,
        "name": "PASER",
        "created_at": "2019-06-01 00:00:00+07",
        "updated_at": "2019-06-01 00:00:00+07"
    },
    {
        "ProvinceId": 16,
        "CityId": 304,
        "name": "KOTA SAMARINDA",
        "created_at": "2019-06-01 00:00:00+07",
        "updated_at": "2019-06-01 00:00:00+07"
    },
    {
        "ProvinceId": 16,
        "CityId": 305,
        "name": "KUTAI BARAT",
        "created_at": "2019-06-01 00:00:00+07",
        "updated_at": "2019-06-01 00:00:00+07"
    },
    {
        "ProvinceId": 16,
        "CityId": 306,
        "name": "MAHAKAM ULU",
        "created_at": "2019-06-01 00:00:00+07",
        "updated_at": "2019-06-01 00:00:00+07"
    },
    {
        "ProvinceId": 16,
        "CityId": 307,
        "name": "KUTAI KARTANEGARA",
        "created_at": "2019-06-01 00:00:00+07",
        "updated_at": "2019-06-01 00:00:00+07"
    },
    {
        "ProvinceId": 23,
        "CityId": 308,
        "name": "SUMBA TIMUR",
        "created_at": "2019-06-01 00:00:00+07",
        "updated_at": "2019-06-01 00:00:00+07"
    },
    {
        "ProvinceId": 23,
        "CityId": 309,
        "name": "KOTA KUPANG",
        "created_at": "2019-06-01 00:00:00+07",
        "updated_at": "2019-06-01 00:00:00+07"
    },
    {
        "ProvinceId": 23,
        "CityId": 310,
        "name": "MALAKA",
        "created_at": "2019-06-01 00:00:00+07",
        "updated_at": "2019-06-01 00:00:00+07"
    },
    {
        "ProvinceId": 23,
        "CityId": 311,
        "name": "MANGGARAI",
        "created_at": "2019-06-01 00:00:00+07",
        "updated_at": "2019-06-01 00:00:00+07"
    },
    {
        "ProvinceId": 23,
        "CityId": 312,
        "name": "SABU RAIJUA",
        "created_at": "2019-06-01 00:00:00+07",
        "updated_at": "2019-06-01 00:00:00+07"
    },
    {
        "ProvinceId": 23,
        "CityId": 313,
        "name": "MANGGARAI TIMUR",
        "created_at": "2019-06-01 00:00:00+07",
        "updated_at": "2019-06-01 00:00:00+07"
    },
    {
        "ProvinceId": 23,
        "CityId": 314,
        "name": "NGADA",
        "created_at": "2019-06-01 00:00:00+07",
        "updated_at": "2019-06-01 00:00:00+07"
    },
    {
        "ProvinceId": 23,
        "CityId": 315,
        "name": "SUMA BARAT DAYA",
        "created_at": "2019-06-01 00:00:00+07",
        "updated_at": "2019-06-01 00:00:00+07"
    },
    {
        "ProvinceId": 23,
        "CityId": 316,
        "name": "ENDE",
        "created_at": "2019-06-01 00:00:00+07",
        "updated_at": "2019-06-01 00:00:00+07"
    },
    {
        "ProvinceId": 23,
        "CityId": 317,
        "name": "SUMBA BARAT",
        "created_at": "2019-06-01 00:00:00+07",
        "updated_at": "2019-06-01 00:00:00+07"
    },
    {
        "ProvinceId": 23,
        "CityId": 318,
        "name": "FLORES TIMUR",
        "created_at": "2019-06-01 00:00:00+07",
        "updated_at": "2019-06-01 00:00:00+07"
    },
    {
        "ProvinceId": 23,
        "CityId": 319,
        "name": "ROTE NDAO",
        "created_at": "2019-06-01 00:00:00+07",
        "updated_at": "2019-06-01 00:00:00+07"
    },
    {
        "ProvinceId": 23,
        "CityId": 320,
        "name": "ALOR",
        "created_at": "2019-06-01 00:00:00+07",
        "updated_at": "2019-06-01 00:00:00+07"
    },
    {
        "ProvinceId": 23,
        "CityId": 321,
        "name": "TIMOR TENGAH UTARA",
        "created_at": "2019-06-01 00:00:00+07",
        "updated_at": "2019-06-01 00:00:00+07"
    },
    {
        "ProvinceId": 23,
        "CityId": 322,
        "name": "TIMOR TENGAH SELATAN",
        "created_at": "2019-06-01 00:00:00+07",
        "updated_at": "2019-06-01 00:00:00+07"
    },
    {
        "ProvinceId": 23,
        "CityId": 323,
        "name": "BELU",
        "created_at": "2019-06-01 00:00:00+07",
        "updated_at": "2019-06-01 00:00:00+07"
    },
    {
        "ProvinceId": 23,
        "CityId": 324,
        "name": "LEMBATA",
        "created_at": "2019-06-01 00:00:00+07",
        "updated_at": "2019-06-01 00:00:00+07"
    },
    {
        "ProvinceId": 23,
        "CityId": 325,
        "name": "MANGGARAI BARAT",
        "created_at": "2019-06-01 00:00:00+07",
        "updated_at": "2019-06-01 00:00:00+07"
    },
    {
        "ProvinceId": 23,
        "CityId": 326,
        "name": "SIKKA",
        "created_at": "2019-06-01 00:00:00+07",
        "updated_at": "2019-06-01 00:00:00+07"
    },
    {
        "ProvinceId": 23,
        "CityId": 327,
        "name": "SUMBA TENGAH",
        "created_at": "2019-06-01 00:00:00+07",
        "updated_at": "2019-06-01 00:00:00+07"
    },
    {
        "ProvinceId": 23,
        "CityId": 328,
        "name": "KUPANG",
        "created_at": "2019-06-01 00:00:00+07",
        "updated_at": "2019-06-01 00:00:00+07"
    },
    {
        "ProvinceId": 23,
        "CityId": 329,
        "name": "NAGEKEO",
        "created_at": "2019-06-01 00:00:00+07",
        "updated_at": "2019-06-01 00:00:00+07"
    },
    {
        "ProvinceId": 14,
        "CityId": 330,
        "name": "TANAH LAUT",
        "created_at": "2019-06-01 00:00:00+07",
        "updated_at": "2019-06-01 00:00:00+07"
    },
    {
        "ProvinceId": 14,
        "CityId": 331,
        "name": "BARITO KUALA",
        "created_at": "2019-06-01 00:00:00+07",
        "updated_at": "2019-06-01 00:00:00+07"
    },
    {
        "ProvinceId": 14,
        "CityId": 332,
        "name": "TABALONG",
        "created_at": "2019-06-01 00:00:00+07",
        "updated_at": "2019-06-01 00:00:00+07"
    },
    {
        "ProvinceId": 14,
        "CityId": 333,
        "name": "TANAH BUMBU",
        "created_at": "2019-06-01 00:00:00+07",
        "updated_at": "2019-06-01 00:00:00+07"
    },
    {
        "ProvinceId": 14,
        "CityId": 334,
        "name": "BALANGAN",
        "created_at": "2019-06-01 00:00:00+07",
        "updated_at": "2019-06-01 00:00:00+07"
    },
    {
        "ProvinceId": 14,
        "CityId": 335,
        "name": "KOTA BANJARBARU",
        "created_at": "2019-06-01 00:00:00+07",
        "updated_at": "2019-06-01 00:00:00+07"
    },
    {
        "ProvinceId": 14,
        "CityId": 336,
        "name": "BANJAR",
        "created_at": "2019-06-01 00:00:00+07",
        "updated_at": "2019-06-01 00:00:00+07"
    },
    {
        "ProvinceId": 14,
        "CityId": 337,
        "name": "KOTA BANJARMASIN",
        "created_at": "2019-06-01 00:00:00+07",
        "updated_at": "2019-06-01 00:00:00+07"
    },
    {
        "ProvinceId": 14,
        "CityId": 338,
        "name": "TAPIN",
        "created_at": "2019-06-01 00:00:00+07",
        "updated_at": "2019-06-01 00:00:00+07"
    },
    {
        "ProvinceId": 14,
        "CityId": 339,
        "name": "HULU SUNGAI SELATAN",
        "created_at": "2019-06-01 00:00:00+07",
        "updated_at": "2019-06-01 00:00:00+07"
    },
    {
        "ProvinceId": 14,
        "CityId": 340,
        "name": "HULU SUNGAI TENGAH",
        "created_at": "2019-06-01 00:00:00+07",
        "updated_at": "2019-06-01 00:00:00+07"
    },
    {
        "ProvinceId": 14,
        "CityId": 341,
        "name": "HULU SUNGAI UTARA",
        "created_at": "2019-06-01 00:00:00+07",
        "updated_at": "2019-06-01 00:00:00+07"
    },
    {
        "ProvinceId": 14,
        "CityId": 342,
        "name": "KOTABARU",
        "created_at": "2019-06-01 00:00:00+07",
        "updated_at": "2019-06-01 00:00:00+07"
    },
    {
        "ProvinceId": 11,
        "CityId": 343,
        "name": "PATI",
        "created_at": "2019-06-01 00:00:00+07",
        "updated_at": "2019-06-01 00:00:00+07"
    },
    {
        "ProvinceId": 11,
        "CityId": 344,
        "name": "DEMAK",
        "created_at": "2019-06-01 00:00:00+07",
        "updated_at": "2019-06-01 00:00:00+07"
    },
    {
        "ProvinceId": 11,
        "CityId": 345,
        "name": "GROBOGAN",
        "created_at": "2019-06-01 00:00:00+07",
        "updated_at": "2019-06-01 00:00:00+07"
    },
    {
        "ProvinceId": 11,
        "CityId": 346,
        "name": "KEBUMEN",
        "created_at": "2019-06-01 00:00:00+07",
        "updated_at": "2019-06-01 00:00:00+07"
    },
    {
        "ProvinceId": 11,
        "CityId": 347,
        "name": "BANJARNEGARA",
        "created_at": "2019-06-01 00:00:00+07",
        "updated_at": "2019-06-01 00:00:00+07"
    },
    {
        "ProvinceId": 11,
        "CityId": 348,
        "name": "WONOGIRI",
        "created_at": "2019-06-01 00:00:00+07",
        "updated_at": "2019-06-01 00:00:00+07"
    },
    {
        "ProvinceId": 11,
        "CityId": 349,
        "name": "CILACAP",
        "created_at": "2019-06-01 00:00:00+07",
        "updated_at": "2019-06-01 00:00:00+07"
    },
    {
        "ProvinceId": 11,
        "CityId": 350,
        "name": "KENDAL",
        "created_at": "2019-06-01 00:00:00+07",
        "updated_at": "2019-06-01 00:00:00+07"
    },
    {
        "ProvinceId": 11,
        "CityId": 351,
        "name": "BREBES",
        "created_at": "2019-06-01 00:00:00+07",
        "updated_at": "2019-06-01 00:00:00+07"
    },
    {
        "ProvinceId": 11,
        "CityId": 352,
        "name": "PURBALINGGA",
        "created_at": "2019-06-01 00:00:00+07",
        "updated_at": "2019-06-01 00:00:00+07"
    },
    {
        "ProvinceId": 11,
        "CityId": 353,
        "name": "SEMARANG",
        "created_at": "2019-06-01 00:00:00+07",
        "updated_at": "2019-06-01 00:00:00+07"
    },
    {
        "ProvinceId": 11,
        "CityId": 354,
        "name": "BOYOLALI",
        "created_at": "2019-06-01 00:00:00+07",
        "updated_at": "2019-06-01 00:00:00+07"
    },
    {
        "ProvinceId": 11,
        "CityId": 355,
        "name": "TEGAL",
        "created_at": "2019-06-01 00:00:00+07",
        "updated_at": "2019-06-01 00:00:00+07"
    },
    {
        "ProvinceId": 11,
        "CityId": 356,
        "name": "JEPARA",
        "created_at": "2019-06-01 00:00:00+07",
        "updated_at": "2019-06-01 00:00:00+07"
    },
    {
        "ProvinceId": 11,
        "CityId": 357,
        "name": "SURAKARTA",
        "created_at": "2019-06-01 00:00:00+07",
        "updated_at": "2019-06-01 00:00:00+07"
    },
    {
        "ProvinceId": 11,
        "CityId": 358,
        "name": "PURWOREJO",
        "created_at": "2019-06-01 00:00:00+07",
        "updated_at": "2019-06-01 00:00:00+07"
    },
    {
        "ProvinceId": 11,
        "CityId": 359,
        "name": "MAGELANG",
        "created_at": "2019-06-01 00:00:00+07",
        "updated_at": "2019-06-01 00:00:00+07"
    },
    {
        "ProvinceId": 11,
        "CityId": 360,
        "name": "SRAGEN",
        "created_at": "2019-06-01 00:00:00+07",
        "updated_at": "2019-06-01 00:00:00+07"
    },
    {
        "ProvinceId": 11,
        "CityId": 361,
        "name": "REMBANG",
        "created_at": "2019-06-01 00:00:00+07",
        "updated_at": "2019-06-01 00:00:00+07"
    },
    {
        "ProvinceId": 11,
        "CityId": 362,
        "name": "WONOSOBO",
        "created_at": "2019-06-01 00:00:00+07",
        "updated_at": "2019-06-01 00:00:00+07"
    },
    {
        "ProvinceId": 11,
        "CityId": 363,
        "name": "KUDUS",
        "created_at": "2019-06-01 00:00:00+07",
        "updated_at": "2019-06-01 00:00:00+07"
    },
    {
        "ProvinceId": 11,
        "CityId": 364,
        "name": "SALATIGA",
        "created_at": "2019-06-01 00:00:00+07",
        "updated_at": "2019-06-01 00:00:00+07"
    },
    {
        "ProvinceId": 11,
        "CityId": 365,
        "name": "BLORA",
        "created_at": "2019-06-01 00:00:00+07",
        "updated_at": "2019-06-01 00:00:00+07"
    },
    {
        "ProvinceId": 11,
        "CityId": 366,
        "name": "SUKOHARJO",
        "created_at": "2019-06-01 00:00:00+07",
        "updated_at": "2019-06-01 00:00:00+07"
    },
    {
        "ProvinceId": 11,
        "CityId": 367,
        "name": "KLATEN",
        "created_at": "2019-06-01 00:00:00+07",
        "updated_at": "2019-06-01 00:00:00+07"
    },
    {
        "ProvinceId": 11,
        "CityId": 368,
        "name": "PEKALONGAN",
        "created_at": "2019-06-01 00:00:00+07",
        "updated_at": "2019-06-01 00:00:00+07"
    },
    {
        "ProvinceId": 11,
        "CityId": 369,
        "name": "KARANGANYAR",
        "created_at": "2019-06-01 00:00:00+07",
        "updated_at": "2019-06-01 00:00:00+07"
    },
    {
        "ProvinceId": 11,
        "CityId": 370,
        "name": "TEMANGGUNG",
        "created_at": "2019-06-01 00:00:00+07",
        "updated_at": "2019-06-01 00:00:00+07"
    },
    {
        "ProvinceId": 11,
        "CityId": 371,
        "name": "BANYUMAS",
        "created_at": "2019-06-01 00:00:00+07",
        "updated_at": "2019-06-01 00:00:00+07"
    },
    {
        "ProvinceId": 11,
        "CityId": 372,
        "name": "BATANG",
        "created_at": "2019-06-01 00:00:00+07",
        "updated_at": "2019-06-01 00:00:00+07"
    },
    {
        "ProvinceId": 11,
        "CityId": 373,
        "name": "PEMALANG",
        "created_at": "2019-06-01 00:00:00+07",
        "updated_at": "2019-06-01 00:00:00+07"
    },
    {
        "ProvinceId": 4,
        "CityId": 374,
        "name": "KAUR",
        "created_at": "2019-06-01 00:00:00+07",
        "updated_at": "2019-06-01 00:00:00+07"
    },
    {
        "ProvinceId": 4,
        "CityId": 375,
        "name": "BENGKULU TENGAH",
        "created_at": "2019-06-01 00:00:00+07",
        "updated_at": "2019-06-01 00:00:00+07"
    },
    {
        "ProvinceId": 4,
        "CityId": 376,
        "name": "BENGKULU UTARA",
        "created_at": "2019-06-01 00:00:00+07",
        "updated_at": "2019-06-01 00:00:00+07"
    },
    {
        "ProvinceId": 4,
        "CityId": 377,
        "name": "LEBONG",
        "created_at": "2019-06-01 00:00:00+07",
        "updated_at": "2019-06-01 00:00:00+07"
    },
    {
        "ProvinceId": 4,
        "CityId": 378,
        "name": "REJANG LEBONG",
        "created_at": "2019-06-01 00:00:00+07",
        "updated_at": "2019-06-01 00:00:00+07"
    },
    {
        "ProvinceId": 4,
        "CityId": 379,
        "name": "BENGKULU SELATAN",
        "created_at": "2019-06-01 00:00:00+07",
        "updated_at": "2019-06-01 00:00:00+07"
    },
    {
        "ProvinceId": 4,
        "CityId": 380,
        "name": "SELUMA",
        "created_at": "2019-06-01 00:00:00+07",
        "updated_at": "2019-06-01 00:00:00+07"
    },
    {
        "ProvinceId": 4,
        "CityId": 381,
        "name": "MUKOMUKO",
        "created_at": "2019-06-01 00:00:00+07",
        "updated_at": "2019-06-01 00:00:00+07"
    },
    {
        "ProvinceId": 4,
        "CityId": 382,
        "name": "KEPAHIANG",
        "created_at": "2019-06-01 00:00:00+07",
        "updated_at": "2019-06-01 00:00:00+07"
    },
    {
        "ProvinceId": 4,
        "CityId": 383,
        "name": "BENGKULU",
        "created_at": "2019-06-01 00:00:00+07",
        "updated_at": "2019-06-01 00:00:00+07"
    },
    {
        "ProvinceId": 29,
        "CityId": 384,
        "name": "KONAWE SELATAN",
        "created_at": "2019-06-01 00:00:00+07",
        "updated_at": "2019-06-01 00:00:00+07"
    },
    {
        "ProvinceId": 29,
        "CityId": 385,
        "name": "KOLAKA UTARA",
        "created_at": "2019-06-01 00:00:00+07",
        "updated_at": "2019-06-01 00:00:00+07"
    },
    {
        "ProvinceId": 29,
        "CityId": 386,
        "name": "BUTON",
        "created_at": "2019-06-01 00:00:00+07",
        "updated_at": "2019-06-01 00:00:00+07"
    },
    {
        "ProvinceId": 29,
        "CityId": 387,
        "name": "BUTON TENGAH",
        "created_at": "2019-06-01 00:00:00+07",
        "updated_at": "2019-06-01 00:00:00+07"
    },
    {
        "ProvinceId": 29,
        "CityId": 388,
        "name": "BAU BAU",
        "created_at": "2019-06-01 00:00:00+07",
        "updated_at": "2019-06-01 00:00:00+07"
    },
    {
        "ProvinceId": 29,
        "CityId": 389,
        "name": "WAKATOBI",
        "created_at": "2019-06-01 00:00:00+07",
        "updated_at": "2019-06-01 00:00:00+07"
    },
    {
        "ProvinceId": 29,
        "CityId": 390,
        "name": "BUTON UTARA",
        "created_at": "2019-06-01 00:00:00+07",
        "updated_at": "2019-06-01 00:00:00+07"
    },
    {
        "ProvinceId": 29,
        "CityId": 391,
        "name": "KOLAKA TIMUR",
        "created_at": "2019-06-01 00:00:00+07",
        "updated_at": "2019-06-01 00:00:00+07"
    },
    {
        "ProvinceId": 29,
        "CityId": 392,
        "name": "BUTON SELATAN",
        "created_at": "2019-06-01 00:00:00+07",
        "updated_at": "2019-06-01 00:00:00+07"
    },
    {
        "ProvinceId": 29,
        "CityId": 393,
        "name": "BOMBANA",
        "created_at": "2019-06-01 00:00:00+07",
        "updated_at": "2019-06-01 00:00:00+07"
    },
    {
        "ProvinceId": 29,
        "CityId": 394,
        "name": "KENDARI",
        "created_at": "2019-06-01 00:00:00+07",
        "updated_at": "2019-06-01 00:00:00+07"
    },
    {
        "ProvinceId": 29,
        "CityId": 395,
        "name": "KONAWE UTARA",
        "created_at": "2019-06-01 00:00:00+07",
        "updated_at": "2019-06-01 00:00:00+07"
    },
    {
        "ProvinceId": 29,
        "CityId": 396,
        "name": "KONAWE KEPULAUAN",
        "created_at": "2019-06-01 00:00:00+07",
        "updated_at": "2019-06-01 00:00:00+07"
    },
    {
        "ProvinceId": 29,
        "CityId": 397,
        "name": "KOLAKA",
        "created_at": "2019-06-01 00:00:00+07",
        "updated_at": "2019-06-01 00:00:00+07"
    },
    {
        "ProvinceId": 29,
        "CityId": 398,
        "name": "KONAWE",
        "created_at": "2019-06-01 00:00:00+07",
        "updated_at": "2019-06-01 00:00:00+07"
    },
    {
        "ProvinceId": 29,
        "CityId": 399,
        "name": "MUNA",
        "created_at": "2019-06-01 00:00:00+07",
        "updated_at": "2019-06-01 00:00:00+07"
    },
    {
        "ProvinceId": 6,
        "CityId": 400,
        "name": "JAKARTA SELATAN",
        "created_at": "2019-06-01 00:00:00+07",
        "updated_at": "2019-06-01 00:00:00+07"
    },
    {
        "ProvinceId": 6,
        "CityId": 401,
        "name": "JAKARTA TIMUR",
        "created_at": "2019-06-01 00:00:00+07",
        "updated_at": "2019-06-01 00:00:00+07"
    },
    {
        "ProvinceId": 6,
        "CityId": 402,
        "name": "KEPULAUAN SERIBU",
        "created_at": "2019-06-01 00:00:00+07",
        "updated_at": "2019-06-01 00:00:00+07"
    },
    {
        "ProvinceId": 6,
        "CityId": 403,
        "name": "JAKARTA UTARA",
        "created_at": "2019-06-01 00:00:00+07",
        "updated_at": "2019-06-01 00:00:00+07"
    },
    {
        "ProvinceId": 6,
        "CityId": 404,
        "name": "JAKARTA BARAT",
        "created_at": "2019-06-01 00:00:00+07",
        "updated_at": "2019-06-01 00:00:00+07"
    },
    {
        "ProvinceId": 6,
        "CityId": 405,
        "name": "JAKARTA PUSAT",
        "created_at": "2019-06-01 00:00:00+07",
        "updated_at": "2019-06-01 00:00:00+07"
    },
    {
        "ProvinceId": 2,
        "CityId": 406,
        "name": "BELITUNG",
        "created_at": "2019-06-01 00:00:00+07",
        "updated_at": "2019-06-01 00:00:00+07"
    },
    {
        "ProvinceId": 2,
        "CityId": 407,
        "name": "BANGKA SELATAN",
        "created_at": "2019-06-01 00:00:00+07",
        "updated_at": "2019-06-01 00:00:00+07"
    },
    {
        "ProvinceId": 2,
        "CityId": 408,
        "name": "BANGKA TENGAH",
        "created_at": "2019-06-01 00:00:00+07",
        "updated_at": "2019-06-01 00:00:00+07"
    },
    {
        "ProvinceId": 2,
        "CityId": 409,
        "name": "BANGKA",
        "created_at": "2019-06-01 00:00:00+07",
        "updated_at": "2019-06-01 00:00:00+07"
    },
    {
        "ProvinceId": 2,
        "CityId": 410,
        "name": "BANGKA BARAT",
        "created_at": "2019-06-01 00:00:00+07",
        "updated_at": "2019-06-01 00:00:00+07"
    },
    {
        "ProvinceId": 2,
        "CityId": 411,
        "name": "BELITUNG TIMUR",
        "created_at": "2019-06-01 00:00:00+07",
        "updated_at": "2019-06-01 00:00:00+07"
    },
    {
        "ProvinceId": 2,
        "CityId": 412,
        "name": "KOTA PANGKAL PINANG",
        "created_at": "2019-06-01 00:00:00+07",
        "updated_at": "2019-06-01 00:00:00+07"
    },
    {
        "ProvinceId": 10,
        "CityId": 413,
        "name": "BEKASI",
        "created_at": "2019-06-01 00:00:00+07",
        "updated_at": "2019-06-01 00:00:00+07"
    },
    {
        "ProvinceId": 10,
        "CityId": 414,
        "name": "BANDUNG BARAT",
        "created_at": "2019-06-01 00:00:00+07",
        "updated_at": "2019-06-01 00:00:00+07"
    },
    {
        "ProvinceId": 10,
        "CityId": 415,
        "name": "CIAMIS",
        "created_at": "2019-06-01 00:00:00+07",
        "updated_at": "2019-06-01 00:00:00+07"
    },
    {
        "ProvinceId": 10,
        "CityId": 416,
        "name": "SUKABUMI",
        "created_at": "2019-06-01 00:00:00+07",
        "updated_at": "2019-06-01 00:00:00+07"
    },
    {
        "ProvinceId": 10,
        "CityId": 417,
        "name": "KUNINGAN",
        "created_at": "2019-06-01 00:00:00+07",
        "updated_at": "2019-06-01 00:00:00+07"
    },
    {
        "ProvinceId": 10,
        "CityId": 418,
        "name": "CIMAHI",
        "created_at": "2019-06-01 00:00:00+07",
        "updated_at": "2019-06-01 00:00:00+07"
    },
    {
        "ProvinceId": 10,
        "CityId": 419,
        "name": "PURWAKARTA",
        "created_at": "2019-06-01 00:00:00+07",
        "updated_at": "2019-06-01 00:00:00+07"
    },
    {
        "ProvinceId": 10,
        "CityId": 420,
        "name": "BANDUNG",
        "created_at": "2019-06-01 00:00:00+07",
        "updated_at": "2019-06-01 00:00:00+07"
    },
    {
        "ProvinceId": 10,
        "CityId": 421,
        "name": "GARUT",
        "created_at": "2019-06-01 00:00:00+07",
        "updated_at": "2019-06-01 00:00:00+07"
    },
    {
        "ProvinceId": 10,
        "CityId": 422,
        "name": "INDRAMAYU",
        "created_at": "2019-06-01 00:00:00+07",
        "updated_at": "2019-06-01 00:00:00+07"
    },
    {
        "ProvinceId": 10,
        "CityId": 423,
        "name": "SUMEDANG",
        "created_at": "2019-06-01 00:00:00+07",
        "updated_at": "2019-06-01 00:00:00+07"
    },
    {
        "ProvinceId": 10,
        "CityId": 424,
        "name": "BANJAR",
        "created_at": "2019-06-01 00:00:00+07",
        "updated_at": "2019-06-01 00:00:00+07"
    },
    {
        "ProvinceId": 10,
        "CityId": 425,
        "name": "DEPOK",
        "created_at": "2019-06-01 00:00:00+07",
        "updated_at": "2019-06-01 00:00:00+07"
    },
    {
        "ProvinceId": 10,
        "CityId": 426,
        "name": "SUBANG",
        "created_at": "2019-06-01 00:00:00+07",
        "updated_at": "2019-06-01 00:00:00+07"
    },
    {
        "ProvinceId": 10,
        "CityId": 427,
        "name": "MAJALENGKA",
        "created_at": "2019-06-01 00:00:00+07",
        "updated_at": "2019-06-01 00:00:00+07"
    },
    {
        "ProvinceId": 10,
        "CityId": 428,
        "name": "BOGOR",
        "created_at": "2019-06-01 00:00:00+07",
        "updated_at": "2019-06-01 00:00:00+07"
    },
    {
        "ProvinceId": 10,
        "CityId": 429,
        "name": "PANGANDARAN",
        "created_at": "2019-06-01 00:00:00+07",
        "updated_at": "2019-06-01 00:00:00+07"
    },
    {
        "ProvinceId": 10,
        "CityId": 430,
        "name": "CIANJUR",
        "created_at": "2019-06-01 00:00:00+07",
        "updated_at": "2019-06-01 00:00:00+07"
    },
    {
        "ProvinceId": 10,
        "CityId": 431,
        "name": "TASIKMALAYA",
        "created_at": "2019-06-01 00:00:00+07",
        "updated_at": "2019-06-01 00:00:00+07"
    },
    {
        "ProvinceId": 10,
        "CityId": 432,
        "name": "CIREBON",
        "created_at": "2019-06-01 00:00:00+07",
        "updated_at": "2019-06-01 00:00:00+07"
    },
    {
        "ProvinceId": 10,
        "CityId": 433,
        "name": "KARAWANG",
        "created_at": "2019-06-01 00:00:00+07",
        "updated_at": "2019-06-01 00:00:00+07"
    },
    {
        "ProvinceId": 3,
        "CityId": 434,
        "name": "CILEGON",
        "created_at": "2019-06-01 00:00:00+07",
        "updated_at": "2019-06-01 00:00:00+07"
    },
    {
        "ProvinceId": 3,
        "CityId": 435,
        "name": "PANDEGLANG",
        "created_at": "2019-06-01 00:00:00+07",
        "updated_at": "2019-06-01 00:00:00+07"
    },
    {
        "ProvinceId": 3,
        "CityId": 436,
        "name": "TANGERANG",
        "created_at": "2019-06-01 00:00:00+07",
        "updated_at": "2019-06-01 00:00:00+07"
    },
    {
        "ProvinceId": 3,
        "CityId": 437,
        "name": "LEBAK",
        "created_at": "2019-06-01 00:00:00+07",
        "updated_at": "2019-06-01 00:00:00+07"
    },
    {
        "ProvinceId": 3,
        "CityId": 438,
        "name": "SERANG",
        "created_at": "2019-06-01 00:00:00+07",
        "updated_at": "2019-06-01 00:00:00+07"
    },
    {
        "ProvinceId": 3,
        "CityId": 439,
        "name": "TANGERANG SELATAN",
        "created_at": "2019-06-01 00:00:00+07",
        "updated_at": "2019-06-01 00:00:00+07"
    },
    {
        "ProvinceId": 20,
        "CityId": 440,
        "name": "HALMAHERA TIMUR",
        "created_at": "2019-06-01 00:00:00+07",
        "updated_at": "2019-06-01 00:00:00+07"
    },
    {
        "ProvinceId": 20,
        "CityId": 441,
        "name": "KEPULAUAN SULA",
        "created_at": "2019-06-01 00:00:00+07",
        "updated_at": "2019-06-01 00:00:00+07"
    },
    {
        "ProvinceId": 20,
        "CityId": 442,
        "name": "HALMAHERA TENGAH",
        "created_at": "2019-06-01 00:00:00+07",
        "updated_at": "2019-06-01 00:00:00+07"
    },
    {
        "ProvinceId": 20,
        "CityId": 443,
        "name": "TERNATE",
        "created_at": "2019-06-01 00:00:00+07",
        "updated_at": "2019-06-01 00:00:00+07"
    },
    {
        "ProvinceId": 20,
        "CityId": 444,
        "name": "PULAU MOROTAI",
        "created_at": "2019-06-01 00:00:00+07",
        "updated_at": "2019-06-01 00:00:00+07"
    },
    {
        "ProvinceId": 20,
        "CityId": 445,
        "name": "HALMAHERA SELATAN",
        "created_at": "2019-06-01 00:00:00+07",
        "updated_at": "2019-06-01 00:00:00+07"
    },
    {
        "ProvinceId": 20,
        "CityId": 446,
        "name": "TIDORE KEPULAUAN",
        "created_at": "2019-06-01 00:00:00+07",
        "updated_at": "2019-06-01 00:00:00+07"
    },
    {
        "ProvinceId": 20,
        "CityId": 447,
        "name": "HALMAHERA BARAT",
        "created_at": "2019-06-01 00:00:00+07",
        "updated_at": "2019-06-01 00:00:00+07"
    },
    {
        "ProvinceId": 20,
        "CityId": 448,
        "name": "HALMAHERA UTARA",
        "created_at": "2019-06-01 00:00:00+07",
        "updated_at": "2019-06-01 00:00:00+07"
    },
    {
        "ProvinceId": 31,
        "CityId": 449,
        "name": "KEPULAUAN MENTAWAI",
        "created_at": "2019-06-01 00:00:00+07",
        "updated_at": "2019-06-01 00:00:00+07"
    },
    {
        "ProvinceId": 31,
        "CityId": 450,
        "name": "PASAMAN  ",
        "created_at": "2019-06-01 00:00:00+07",
        "updated_at": "2019-06-01 00:00:00+07"
    },
    {
        "ProvinceId": 31,
        "CityId": 451,
        "name": "SOLOK  ",
        "created_at": "2019-06-01 00:00:00+07",
        "updated_at": "2019-06-01 00:00:00+07"
    },
    {
        "ProvinceId": 31,
        "CityId": 452,
        "name": "KOTA PARIAMAN",
        "created_at": "2019-06-01 00:00:00+07",
        "updated_at": "2019-06-01 00:00:00+07"
    },
    {
        "ProvinceId": 31,
        "CityId": 453,
        "name": "KOTA PADANGPANJANG",
        "created_at": "2019-06-01 00:00:00+07",
        "updated_at": "2019-06-01 00:00:00+07"
    },
    {
        "ProvinceId": 31,
        "CityId": 454,
        "name": "DHARMASRAYA",
        "created_at": "2019-06-01 00:00:00+07",
        "updated_at": "2019-06-01 00:00:00+07"
    },
    {
        "ProvinceId": 31,
        "CityId": 455,
        "name": "AGAM",
        "created_at": "2019-06-01 00:00:00+07",
        "updated_at": "2019-06-01 00:00:00+07"
    },
    {
        "ProvinceId": 31,
        "CityId": 456,
        "name": "PADANGPANJANG",
        "created_at": "2019-06-01 00:00:00+07",
        "updated_at": "2019-06-01 00:00:00+07"
    },
    {
        "ProvinceId": 31,
        "CityId": 457,
        "name": "LIMA PULUH KOTA",
        "created_at": "2019-06-01 00:00:00+07",
        "updated_at": "2019-06-01 00:00:00+07"
    },
    {
        "ProvinceId": 31,
        "CityId": 458,
        "name": "PADANG PARIAMAN",
        "created_at": "2019-06-01 00:00:00+07",
        "updated_at": "2019-06-01 00:00:00+07"
    },
    {
        "ProvinceId": 31,
        "CityId": 459,
        "name": "KOTA BUKITTINGGI",
        "created_at": "2019-06-01 00:00:00+07",
        "updated_at": "2019-06-01 00:00:00+07"
    },
    {
        "ProvinceId": 31,
        "CityId": 460,
        "name": "KOTA SOLOK",
        "created_at": "2019-06-01 00:00:00+07",
        "updated_at": "2019-06-01 00:00:00+07"
    },
    {
        "ProvinceId": 31,
        "CityId": 461,
        "name": "KOTA SAWAHLUNTO",
        "created_at": "2019-06-01 00:00:00+07",
        "updated_at": "2019-06-01 00:00:00+07"
    },
    {
        "ProvinceId": 31,
        "CityId": 462,
        "name": "SOLOK SELATAN",
        "created_at": "2019-06-01 00:00:00+07",
        "updated_at": "2019-06-01 00:00:00+07"
    },
    {
        "ProvinceId": 31,
        "CityId": 463,
        "name": "KOTA PADANG",
        "created_at": "2019-06-01 00:00:00+07",
        "updated_at": "2019-06-01 00:00:00+07"
    },
    {
        "ProvinceId": 31,
        "CityId": 464,
        "name": "KOTA PAYAKUMBUH",
        "created_at": "2019-06-01 00:00:00+07",
        "updated_at": "2019-06-01 00:00:00+07"
    },
    {
        "ProvinceId": 31,
        "CityId": 465,
        "name": "PASAMAN BARAT",
        "created_at": "2019-06-01 00:00:00+07",
        "updated_at": "2019-06-01 00:00:00+07"
    },
    {
        "ProvinceId": 31,
        "CityId": 466,
        "name": "SIJUNJUNG",
        "created_at": "2019-06-01 00:00:00+07",
        "updated_at": "2019-06-01 00:00:00+07"
    },
    {
        "ProvinceId": 31,
        "CityId": 467,
        "name": "PESISIR SELATAN",
        "created_at": "2019-06-01 00:00:00+07",
        "updated_at": "2019-06-01 00:00:00+07"
    },
    {
        "ProvinceId": 31,
        "CityId": 468,
        "name": "TANAH DATAR",
        "created_at": "2019-06-01 00:00:00+07",
        "updated_at": "2019-06-01 00:00:00+07"
    },
    {
        "ProvinceId": 17,
        "CityId": 469,
        "name": "NATUNA",
        "created_at": "2019-06-01 00:00:00+07",
        "updated_at": "2019-06-01 00:00:00+07"
    },
    {
        "ProvinceId": 17,
        "CityId": 470,
        "name": "KOTA TANJUNG PINANG",
        "created_at": "2019-06-01 00:00:00+07",
        "updated_at": "2019-06-01 00:00:00+07"
    },
    {
        "ProvinceId": 17,
        "CityId": 471,
        "name": "BINTAN",
        "created_at": "2019-06-01 00:00:00+07",
        "updated_at": "2019-06-01 00:00:00+07"
    },
    {
        "ProvinceId": 17,
        "CityId": 472,
        "name": "KOTA BATAM",
        "created_at": "2019-06-01 00:00:00+07",
        "updated_at": "2019-06-01 00:00:00+07"
    },
    {
        "ProvinceId": 17,
        "CityId": 473,
        "name": "LINGGA",
        "created_at": "2019-06-01 00:00:00+07",
        "updated_at": "2019-06-01 00:00:00+07"
    },
    {
        "ProvinceId": 17,
        "CityId": 474,
        "name": "KARIMUN",
        "created_at": "2019-06-01 00:00:00+07",
        "updated_at": "2019-06-01 00:00:00+07"
    },
    {
        "ProvinceId": 17,
        "CityId": 475,
        "name": "KEPULAUAN ANAMBAS",
        "created_at": "2019-06-01 00:00:00+07",
        "updated_at": "2019-06-01 00:00:00+07"
    },
    {
        "ProvinceId": 30,
        "CityId": 476,
        "name": "MINAHASA TENGGARA",
        "created_at": "2019-06-01 00:00:00+07",
        "updated_at": "2019-06-01 00:00:00+07"
    },
    {
        "ProvinceId": 30,
        "CityId": 477,
        "name": "KEPULAUAN SIAU TAGULANDANG BIARO",
        "created_at": "2019-06-01 00:00:00+07",
        "updated_at": "2019-06-01 00:00:00+07"
    },
    {
        "ProvinceId": 30,
        "CityId": 478,
        "name": "MINAHASA",
        "created_at": "2019-06-01 00:00:00+07",
        "updated_at": "2019-06-01 00:00:00+07"
    },
    {
        "ProvinceId": 30,
        "CityId": 479,
        "name": "MINAHASA SELATAN",
        "created_at": "2019-06-01 00:00:00+07",
        "updated_at": "2019-06-01 00:00:00+07"
    },
    {
        "ProvinceId": 30,
        "CityId": 480,
        "name": "BOLAANG MONGONDOW TIMUR",
        "created_at": "2019-06-01 00:00:00+07",
        "updated_at": "2019-06-01 00:00:00+07"
    },
    {
        "ProvinceId": 30,
        "CityId": 481,
        "name": "BOLAANG MONGONDOW",
        "created_at": "2019-06-01 00:00:00+07",
        "updated_at": "2019-06-01 00:00:00+07"
    },
    {
        "ProvinceId": 30,
        "CityId": 482,
        "name": "BITUNG",
        "created_at": "2019-06-01 00:00:00+07",
        "updated_at": "2019-06-01 00:00:00+07"
    },
    {
        "ProvinceId": 30,
        "CityId": 483,
        "name": "BOLAANG MONGONDOW SELATAN",
        "created_at": "2019-06-01 00:00:00+07",
        "updated_at": "2019-06-01 00:00:00+07"
    },
    {
        "ProvinceId": 30,
        "CityId": 484,
        "name": "KEPULAUAN SANGIHE",
        "created_at": "2019-06-01 00:00:00+07",
        "updated_at": "2019-06-01 00:00:00+07"
    },
    {
        "ProvinceId": 30,
        "CityId": 485,
        "name": "KEPULAUAN TALAUD",
        "created_at": "2019-06-01 00:00:00+07",
        "updated_at": "2019-06-01 00:00:00+07"
    },
    {
        "ProvinceId": 30,
        "CityId": 486,
        "name": "BOLAANG MONGONDOW UTARA",
        "created_at": "2019-06-01 00:00:00+07",
        "updated_at": "2019-06-01 00:00:00+07"
    },
    {
        "ProvinceId": 30,
        "CityId": 487,
        "name": "MINAHASA UTARA",
        "created_at": "2019-06-01 00:00:00+07",
        "updated_at": "2019-06-01 00:00:00+07"
    },
    {
        "ProvinceId": 30,
        "CityId": 488,
        "name": "TOMOHON",
        "created_at": "2019-06-01 00:00:00+07",
        "updated_at": "2019-06-01 00:00:00+07"
    },
    {
        "ProvinceId": 30,
        "CityId": 489,
        "name": "KOTAMOBAGU",
        "created_at": "2019-06-01 00:00:00+07",
        "updated_at": "2019-06-01 00:00:00+07"
    }
]
