[
    {
        "country_id": 1,
        "name": "INDONESIA",
        "country_code": "ID",
        "phone_code": "+62",
        "created_at": "2019-06-01 00:00:00+07",
        "updated_at": "2019-06-01 00:00:00+07"
    }
]
